(module 10mm_nasaworm (layer F.Cu)
  (at 0 0)
 (fp_text reference "G***" (at 0 0) (layer F.SilkS) hide
  (effects (font (thickness 0.3)))
  )
  (fp_text value "10mm_nasaworm" (at 0.75 0) (layer F.SilkS) hide
  (effects (font (thickness 0.3)))
  )
  (fp_poly (pts (xy -3.550806 -1.167281) (xy -3.516325 -1.164803) (xy -3.492188 -1.161636) (xy -3.427476 -1.146612) (xy -3.363609 -1.123903) (xy -3.302379 -1.094240) (xy -3.255562 -1.065353) (xy -3.212504 -1.031759)
     (xy -3.170868 -0.991472) (xy -3.132015 -0.946226) (xy -3.097308 -0.897758) (xy -3.068108 -0.847801) (xy -3.045776 -0.798090) (xy -3.045757 -0.798039) (xy -3.043583 -0.791218) (xy -3.039265 -0.776686)
     (xy -3.032928 -0.754887) (xy -3.024698 -0.726268) (xy -3.014702 -0.691272) (xy -3.003064 -0.650345) (xy -2.989911 -0.603933) (xy -2.975369 -0.552481) (xy -2.959563 -0.496433) (xy -2.942619 -0.436235)
     (xy -2.924664 -0.372332) (xy -2.905822 -0.305170) (xy -2.886220 -0.235192) (xy -2.865984 -0.162846) (xy -2.847102 -0.095250) (xy -2.826393 -0.021075) (xy -2.806217 0.051175) (xy -2.786699 0.121052)
     (xy -2.767964 0.188108) (xy -2.750138 0.251894) (xy -2.733345 0.311963) (xy -2.717712 0.367866) (xy -2.703364 0.419155) (xy -2.690425 0.465382) (xy -2.679022 0.506100) (xy -2.669280 0.540860)
     (xy -2.661324 0.569213) (xy -2.655279 0.590713) (xy -2.651271 0.604910) (xy -2.649505 0.611085) (xy -2.636829 0.640434) (xy -2.617819 0.665369) (xy -2.593625 0.684449) (xy -2.588874 0.687117)
     (xy -2.569333 0.693821) (xy -2.545632 0.696625) (xy -2.521122 0.695535) (xy -2.499155 0.690558) (xy -2.490748 0.686923) (xy -2.464756 0.668577) (xy -2.443719 0.644304) (xy -2.437178 0.633452)
     (xy -2.427817 0.615949) (xy -2.426718 -0.248709) (xy -2.425620 -1.113367) (xy -1.955800 -1.113367) (xy -1.955816 -0.236009) (xy -1.955816 -0.132888) (xy -1.955817 -0.037875) (xy -1.955827 0.049390)
     (xy -1.955852 0.129266) (xy -1.955902 0.202112) (xy -1.955984 0.268288) (xy -1.956105 0.328153) (xy -1.956274 0.382067) (xy -1.956497 0.430387) (xy -1.956783 0.473474) (xy -1.957139 0.511688)
     (xy -1.957573 0.545386) (xy -1.958093 0.574929) (xy -1.958706 0.600676) (xy -1.959421 0.622985) (xy -1.960244 0.642217) (xy -1.961184 0.658731) (xy -1.962247 0.672885) (xy -1.963443 0.685039)
     (xy -1.964779 0.695553) (xy -1.966261 0.704785) (xy -1.967899 0.713095) (xy -1.969699 0.720842) (xy -1.971670 0.728385) (xy -1.973819 0.736084) (xy -1.976154 0.744298) (xy -1.976889 0.746907)
     (xy -1.999226 0.811160) (xy -2.028900 0.871804) (xy -2.065371 0.928334) (xy -2.108099 0.980247) (xy -2.156545 1.027040) (xy -2.210169 1.068208) (xy -2.268432 1.103248) (xy -2.330793 1.131657)
     (xy -2.396714 1.152931) (xy -2.417234 1.157875) (xy -2.431054 1.160068) (xy -2.451117 1.162106) (xy -2.475620 1.163918) (xy -2.502761 1.165433) (xy -2.530736 1.166578) (xy -2.557744 1.167282)
     (xy -2.581981 1.167472) (xy -2.601645 1.167076) (xy -2.614934 1.166023) (xy -2.616200 1.165816) (xy -2.667462 1.155473) (xy -2.712168 1.143997) (xy -2.752217 1.130672) (xy -2.789509 1.114783)
     (xy -2.825943 1.095616) (xy -2.862260 1.073217) (xy -2.909990 1.037758) (xy -2.955665 0.995759) (xy -2.997462 0.949143) (xy -3.033555 0.899832) (xy -3.046237 0.879357) (xy -3.050810 0.871391)
     (xy -3.055238 0.863221) (xy -3.059636 0.854468) (xy -3.064120 0.844753) (xy -3.068804 0.833696) (xy -3.073803 0.820917) (xy -3.079232 0.806038) (xy -3.085205 0.788678) (xy -3.091839 0.768458)
     (xy -3.099246 0.744998) (xy -3.107544 0.717920) (xy -3.116845 0.686844) (xy -3.127266 0.651390) (xy -3.138921 0.611178) (xy -3.151925 0.565830) (xy -3.166392 0.514966) (xy -3.182439 0.458206)
     (xy -3.200179 0.395171) (xy -3.219728 0.325482) (xy -3.241200 0.248758) (xy -3.264710 0.164621) (xy -3.289385 0.076234) (xy -3.310394 0.001028) (xy -3.330866 -0.072109) (xy -3.350677 -0.142747)
     (xy -3.369707 -0.210457) (xy -3.387833 -0.274810) (xy -3.404934 -0.335377) (xy -3.420887 -0.391729) (xy -3.435572 -0.443438) (xy -3.448865 -0.490074) (xy -3.460645 -0.531208) (xy -3.470790 -0.566411)
     (xy -3.479179 -0.595254) (xy -3.485689 -0.617309) (xy -3.490199 -0.632146) (xy -3.492586 -0.639336) (xy -3.492790 -0.639803) (xy -3.508152 -0.661208) (xy -3.529248 -0.678432) (xy -3.554164 -0.690716)
     (xy -3.580989 -0.697302) (xy -3.607810 -0.697431) (xy -3.626629 -0.692887) (xy -3.649044 -0.681347) (xy -3.670197 -0.664688) (xy -3.686904 -0.645535) (xy -3.690017 -0.640655) (xy -3.702050 -0.620184)
     (xy -3.703149 0.246591) (xy -3.704247 1.113366) (xy -4.178493 1.113366) (xy -4.177106 0.229658) (xy -4.176941 0.127261) (xy -4.176780 0.032983) (xy -4.176619 -0.053527) (xy -4.176455 -0.132617)
     (xy -4.176284 -0.204637) (xy -4.176103 -0.269934) (xy -4.175910 -0.328858) (xy -4.175700 -0.381758) (xy -4.175471 -0.428982) (xy -4.175219 -0.470881) (xy -4.174941 -0.507802) (xy -4.174634 -0.540095)
     (xy -4.174294 -0.568108) (xy -4.173918 -0.592190) (xy -4.173504 -0.612691) (xy -4.173047 -0.629960) (xy -4.172545 -0.644344) (xy -4.171994 -0.656194) (xy -4.171391 -0.665858) (xy -4.170732 -0.673685)
     (xy -4.170015 -0.680024) (xy -4.169236 -0.685224) (xy -4.168536 -0.688946) (xy -4.150069 -0.759100) (xy -4.124613 -0.825092) (xy -4.092561 -0.886536) (xy -4.054302 -0.943044) (xy -4.010230 -0.994231)
     (xy -3.960735 -1.039708) (xy -3.906210 -1.079089) (xy -3.847044 -1.111988) (xy -3.783630 -1.138018) (xy -3.716360 -1.156791) (xy -3.689854 -1.161944) (xy -3.660549 -1.165574) (xy -3.625731 -1.167671)
     (xy -3.588212 -1.168238) (xy -3.550806 -1.167281) )(layer F.SilkS) (width  0.010000)
  )
  (fp_poly (pts (xy -0.863708 -1.167127) (xy -0.817056 -1.162727) (xy -0.774543 -1.155501) (xy -0.760937 -1.152265) (xy -0.694162 -1.130747) (xy -0.631220 -1.102086) (xy -0.572634 -1.066735) (xy -0.518921 -1.025152)
     (xy -0.470602 -0.977792) (xy -0.428197 -0.925110) (xy -0.392224 -0.867563) (xy -0.363204 -0.805605) (xy -0.361932 -0.802365) (xy -0.359628 -0.795782) (xy -0.354882 -0.781650) (xy -0.347859 -0.760477)
     (xy -0.338724 -0.732772) (xy -0.327641 -0.699041) (xy -0.314777 -0.659791) (xy -0.300294 -0.615530) (xy -0.284359 -0.566766) (xy -0.267136 -0.514006) (xy -0.248790 -0.457756) (xy -0.229487 -0.398525)
     (xy -0.209390 -0.336821) (xy -0.188665 -0.273149) (xy -0.167477 -0.208018) (xy -0.145990 -0.141936) (xy -0.124370 -0.075408) (xy -0.102781 -0.008944) (xy -0.081389 0.056950) (xy -0.060358 0.121766)
     (xy -0.039853 0.184998) (xy -0.020039 0.246137) (xy -0.001081 0.304676) (xy 0.016856 0.360108) (xy 0.033608 0.411925) (xy 0.049009 0.459620) (xy 0.062894 0.502686) (xy 0.075099 0.540615)
     (xy 0.085459 0.572900) (xy 0.093809 0.599033) (xy 0.099983 0.618508) (xy 0.103478 0.629708) (xy 0.106404 0.639233) (xy 0.711039 0.639233) (xy 0.794543 0.639231) (xy 0.870009 0.639222)
     (xy 0.937865 0.639199) (xy 0.998538 0.639157) (xy 1.052457 0.639090) (xy 1.100051 0.638992) (xy 1.141748 0.638857) (xy 1.177975 0.638680) (xy 1.209161 0.638455) (xy 1.235734 0.638175)
     (xy 1.258123 0.637835) (xy 1.276755 0.637429) (xy 1.292059 0.636951) (xy 1.304462 0.636396) (xy 1.314394 0.635758) (xy 1.322283 0.635030) (xy 1.328556 0.634207) (xy 1.333641 0.633283)
     (xy 1.337968 0.632252) (xy 1.341963 0.631109) (xy 1.343596 0.630609) (xy 1.378642 0.615558) (xy 1.411008 0.593491) (xy 1.439231 0.565769) (xy 1.461852 0.533755) (xy 1.473629 0.509372)
     (xy 1.478253 0.496123) (xy 1.481178 0.482965) (xy 1.482756 0.467339) (xy 1.483337 0.446685) (xy 1.483369 0.438150) (xy 1.483046 0.415226) (xy 1.481843 0.398193) (xy 1.479410 0.384490)
     (xy 1.475397 0.371557) (xy 1.473629 0.366927) (xy 1.455830 0.332707) (xy 1.431400 0.301820) (xy 1.401799 0.275629) (xy 1.368488 0.255496) (xy 1.343596 0.245690) (xy 1.338130 0.244076)
     (xy 1.332504 0.242676) (xy 1.326103 0.241476) (xy 1.318311 0.240459) (xy 1.308513 0.239610) (xy 1.296094 0.238913) (xy 1.280439 0.238354) (xy 1.260934 0.237916) (xy 1.236962 0.237584)
     (xy 1.207908 0.237342) (xy 1.173158 0.237175) (xy 1.132097 0.237068) (xy 1.084109 0.237004) (xy 1.028580 0.236969) (xy 0.997562 0.236957) (xy 0.945233 0.236886) (xy 0.894498 0.236717)
     (xy 0.846125 0.236457) (xy 0.800886 0.236116) (xy 0.759549 0.235702) (xy 0.722885 0.235224) (xy 0.691664 0.234691) (xy 0.666655 0.234111) (xy 0.648629 0.233493) (xy 0.638818 0.232893)
     (xy 0.563693 0.221495) (xy 0.491466 0.202390) (xy 0.422611 0.175903) (xy 0.357602 0.142357) (xy 0.296914 0.102079) (xy 0.241018 0.055391) (xy 0.190390 0.002619) (xy 0.145504 -0.055913)
     (xy 0.106832 -0.119881) (xy 0.097744 -0.137584) (xy 0.067742 -0.207447) (xy 0.045907 -0.279016) (xy 0.032239 -0.351765) (xy 0.026738 -0.425166) (xy 0.029405 -0.498693) (xy 0.040239 -0.571820)
     (xy 0.059241 -0.644020) (xy 0.086411 -0.714767) (xy 0.097667 -0.738717) (xy 0.129556 -0.796314) (xy 0.166471 -0.849238) (xy 0.209907 -0.899565) (xy 0.224367 -0.914401) (xy 0.280965 -0.965248)
     (xy 0.341589 -1.008655) (xy 0.406130 -1.044573) (xy 0.474483 -1.072950) (xy 0.546540 -1.093739) (xy 0.622194 -1.106888) (xy 0.641350 -1.108946) (xy 0.653097 -1.109635) (xy 0.673110 -1.110271)
     (xy 0.701189 -1.110851) (xy 0.737134 -1.111375) (xy 0.780743 -1.111841) (xy 0.831817 -1.112248) (xy 0.890155 -1.112593) (xy 0.955557 -1.112877) (xy 1.027822 -1.113097) (xy 1.106750 -1.113253)
     (xy 1.192141 -1.113341) (xy 1.264708 -1.113364) (xy 1.841500 -1.113367) (xy 1.841500 -0.639234) (xy 1.255629 -0.639234) (xy 1.173459 -0.639231) (xy 1.099321 -0.639220) (xy 1.032779 -0.639194)
     (xy 0.973399 -0.639147) (xy 0.920744 -0.639073) (xy 0.874380 -0.638967) (xy 0.833872 -0.638821) (xy 0.798784 -0.638631) (xy 0.768681 -0.638391) (xy 0.743129 -0.638094) (xy 0.721691 -0.637734)
     (xy 0.703933 -0.637306) (xy 0.689420 -0.636803) (xy 0.677716 -0.636220) (xy 0.668386 -0.635550) (xy 0.660995 -0.634788) (xy 0.655108 -0.633928) (xy 0.650290 -0.632963) (xy 0.646105 -0.631888)
     (xy 0.642549 -0.630830) (xy 0.613010 -0.618786) (xy 0.584102 -0.601777) (xy 0.558951 -0.581789) (xy 0.548610 -0.571126) (xy 0.538655 -0.557864) (xy 0.527630 -0.540390) (xy 0.517778 -0.522285)
     (xy 0.517003 -0.520700) (xy 0.510496 -0.506911) (xy 0.506149 -0.495960) (xy 0.503526 -0.485509) (xy 0.502192 -0.473217) (xy 0.501711 -0.456746) (xy 0.501650 -0.438150) (xy 0.501748 -0.416435)
     (xy 0.502340 -0.400816) (xy 0.503873 -0.388925) (xy 0.506791 -0.378391) (xy 0.511541 -0.366845) (xy 0.517434 -0.354295) (xy 0.538403 -0.319584) (xy 0.565407 -0.289658) (xy 0.597255 -0.265521)
     (xy 0.632757 -0.248179) (xy 0.649182 -0.242972) (xy 0.655019 -0.241817) (xy 0.663613 -0.240816) (xy 0.675519 -0.239960) (xy 0.691290 -0.239238) (xy 0.711481 -0.238641) (xy 0.736644 -0.238159)
     (xy 0.767333 -0.237782) (xy 0.804102 -0.237499) (xy 0.847505 -0.237302) (xy 0.898095 -0.237180) (xy 0.956425 -0.237123) (xy 0.976227 -0.237117) (xy 1.043742 -0.237058) (xy 1.103429 -0.236885)
     (xy 1.155928 -0.236576) (xy 1.201875 -0.236105) (xy 1.241911 -0.235447) (xy 1.276672 -0.234578) (xy 1.306799 -0.233473) (xy 1.332929 -0.232107) (xy 1.355701 -0.230455) (xy 1.375754 -0.228494)
     (xy 1.393726 -0.226197) (xy 1.410255 -0.223541) (xy 1.425980 -0.220501) (xy 1.430525 -0.219535) (xy 1.501339 -0.199958) (xy 1.568874 -0.172880) (xy 1.632643 -0.138796) (xy 1.692156 -0.098197)
     (xy 1.746927 -0.051576) (xy 1.796467 0.000572) (xy 1.840289 0.057756) (xy 1.877903 0.119482) (xy 1.908824 0.185257) (xy 1.932561 0.254588) (xy 1.943356 0.298653) (xy 1.952905 0.360509)
     (xy 1.956838 0.425892) (xy 1.955135 0.491978) (xy 1.947779 0.555942) (xy 1.945097 0.571047) (xy 1.928636 0.636298) (xy 1.904633 0.700960) (xy 1.873857 0.763711) (xy 1.837074 0.823224)
     (xy 1.795053 0.878176) (xy 1.748559 0.927243) (xy 1.728130 0.945567) (xy 1.666674 0.992833) (xy 1.602506 1.032104) (xy 1.535389 1.063478) (xy 1.465090 1.087057) (xy 1.391372 1.102939)
     (xy 1.343859 1.108965) (xy 1.332945 1.109578) (xy 1.313673 1.110148) (xy 1.286151 1.110673) (xy 1.250488 1.111154) (xy 1.206792 1.111588) (xy 1.155171 1.111977) (xy 1.095735 1.112319)
     (xy 1.028591 1.112614) (xy 0.953848 1.112861) (xy 0.871615 1.113059) (xy 0.781999 1.113208) (xy 0.685110 1.113308) (xy 0.581055 1.113357) (xy 0.530721 1.113363) (xy -0.236075 1.113366)
     (xy -0.255465 1.053041) (xy -0.282579 0.968753) (xy -0.310214 0.882976) (xy -0.338246 0.796087) (xy -0.366552 0.708461) (xy -0.395009 0.620474) (xy -0.423496 0.532502) (xy -0.451888 0.444922)
     (xy -0.480063 0.358110) (xy -0.507898 0.272441) (xy -0.535271 0.188293) (xy -0.562057 0.106039) (xy -0.588135 0.026058) (xy -0.613382 -0.051275) (xy -0.637674 -0.125585) (xy -0.660889 -0.196494)
     (xy -0.682903 -0.263628) (xy -0.703595 -0.326609) (xy -0.722840 -0.385062) (xy -0.740517 -0.438610) (xy -0.756502 -0.486879) (xy -0.770673 -0.529491) (xy -0.782906 -0.566070) (xy -0.793079 -0.596241)
     (xy -0.801068 -0.619627) (xy -0.806751 -0.635853) (xy -0.810006 -0.644541) (xy -0.810585 -0.645798) (xy -0.827716 -0.667104) (xy -0.850048 -0.683114) (xy -0.875839 -0.693379) (xy -0.903349 -0.697450)
     (xy -0.930835 -0.694878) (xy -0.956557 -0.685213) (xy -0.958694 -0.683999) (xy -0.974462 -0.673489) (xy -0.987382 -0.661511) (xy -0.998378 -0.646626) (xy -1.008371 -0.627396) (xy -1.018284 -0.602382)
     (xy -1.026394 -0.578426) (xy -1.029622 -0.568444) (xy -1.035324 -0.550825) (xy -1.043364 -0.525985) (xy -1.053608 -0.494342) (xy -1.065920 -0.456312) (xy -1.080165 -0.412312) (xy -1.096209 -0.362760)
     (xy -1.113916 -0.308072) (xy -1.133151 -0.248666) (xy -1.153779 -0.184959) (xy -1.175666 -0.117368) (xy -1.198676 -0.046309) (xy -1.222674 0.027800) (xy -1.247525 0.104542) (xy -1.273093 0.183500)
     (xy -1.299245 0.264257) (xy -1.309633 0.296333) (xy -1.573534 1.111250) (xy -1.822283 1.112342) (xy -1.876162 1.112546) (xy -1.922114 1.112642) (xy -1.960678 1.112622) (xy -1.992393 1.112475)
     (xy -2.017798 1.112193) (xy -2.037433 1.111766) (xy -2.051836 1.111185) (xy -2.061546 1.110441) (xy -2.067103 1.109524) (xy -2.069045 1.108426) (xy -2.069024 1.108109) (xy -2.067467 1.103419)
     (xy -2.063481 1.091219) (xy -2.057243 1.072053) (xy -2.048929 1.046466) (xy -2.038716 1.015002) (xy -2.026780 0.978206) (xy -2.013300 0.936623) (xy -1.998450 0.890799) (xy -1.982408 0.841277)
     (xy -1.965350 0.788602) (xy -1.947453 0.733320) (xy -1.934814 0.694266) (xy -1.889714 0.554914) (xy -1.847163 0.423455) (xy -1.807106 0.299726) (xy -1.769492 0.183562) (xy -1.734266 0.074801)
     (xy -1.701375 -0.026723) (xy -1.670766 -0.121172) (xy -1.642387 -0.208710) (xy -1.616182 -0.289502) (xy -1.592101 -0.363711) (xy -1.570088 -0.431500) (xy -1.550092 -0.493034) (xy -1.532058 -0.548476)
     (xy -1.515934 -0.597991) (xy -1.501667 -0.641741) (xy -1.489202 -0.679892) (xy -1.478487 -0.712605) (xy -1.469469 -0.740046) (xy -1.462095 -0.762378) (xy -1.456311 -0.779765) (xy -1.452063 -0.792371)
     (xy -1.449300 -0.800359) (xy -1.448229 -0.803268) (xy -1.422305 -0.859566) (xy -1.390157 -0.912254) (xy -1.350956 -0.962571) (xy -1.318684 -0.997240) (xy -1.266092 -1.044696) (xy -1.210263 -1.084373)
     (xy -1.150851 -1.116449) (xy -1.087512 -1.141103) (xy -1.019902 -1.158513) (xy -0.999782 -1.162177) (xy -0.957943 -1.166971) (xy -0.911628 -1.168581) (xy -0.863708 -1.167127) )(layer F.SilkS) (width  0.010000)
  )
  (fp_poly (pts (xy 3.004167 -1.166421) (xy 3.040852 -1.163497) (xy 3.072935 -1.159104) (xy 3.086827 -1.156296) (xy 3.153000 -1.137248) (xy 3.214064 -1.111910) (xy 3.270958 -1.079756) (xy 3.324618 -1.040263)
     (xy 3.371856 -0.997079) (xy 3.415889 -0.948536) (xy 3.452556 -0.898197) (xy 3.482957 -0.844371) (xy 3.506637 -0.789517) (xy 3.508796 -0.783239) (xy 3.513387 -0.769447) (xy 3.520271 -0.748569)
     (xy 3.529308 -0.721034) (xy 3.540358 -0.687274) (xy 3.553282 -0.647716) (xy 3.567942 -0.602791) (xy 3.584196 -0.552928) (xy 3.601908 -0.498556) (xy 3.620935 -0.440105) (xy 3.641141 -0.378005)
     (xy 3.662384 -0.312685) (xy 3.684526 -0.244575) (xy 3.707427 -0.174103) (xy 3.730949 -0.101700) (xy 3.754951 -0.027795) (xy 3.779294 0.047182) (xy 3.803839 0.122802) (xy 3.828446 0.198636)
     (xy 3.852977 0.274254) (xy 3.877291 0.349226) (xy 3.901250 0.423123) (xy 3.924714 0.495515) (xy 3.947543 0.565974) (xy 3.969599 0.634068) (xy 3.990742 0.699370) (xy 4.010832 0.761449)
     (xy 4.029730 0.819876) (xy 4.047298 0.874222) (xy 4.063394 0.924056) (xy 4.077881 0.968949) (xy 4.090619 1.008473) (xy 4.101468 1.042197) (xy 4.110289 1.069692) (xy 4.116942 1.090528)
     (xy 4.121289 1.104276) (xy 4.123190 1.110506) (xy 4.123266 1.110836) (xy 4.119157 1.111295) (xy 4.107322 1.111728) (xy 4.088503 1.112126) (xy 4.063443 1.112482) (xy 4.032882 1.112788)
     (xy 3.997562 1.113037) (xy 3.958225 1.113221) (xy 3.915611 1.113333) (xy 3.875967 1.113366) (xy 3.628668 1.113366) (xy 3.611575 1.061508) (xy 3.608543 1.052237) (xy 3.603039 1.035333)
     (xy 3.595200 1.011215) (xy 3.585162 0.980305) (xy 3.573061 0.943024) (xy 3.559035 0.899792) (xy 3.543220 0.851030) (xy 3.525752 0.797159) (xy 3.506768 0.738601) (xy 3.486403 0.675775)
     (xy 3.464795 0.609104) (xy 3.442080 0.539007) (xy 3.418395 0.465906) (xy 3.393875 0.390221) (xy 3.368658 0.312373) (xy 3.342880 0.232784) (xy 3.340153 0.224366) (xy 3.314390 0.144825)
     (xy 3.289208 0.067100) (xy 3.264743 -0.008398) (xy 3.241127 -0.081256) (xy 3.218496 -0.151061) (xy 3.196982 -0.217401) (xy 3.176719 -0.279865) (xy 3.157842 -0.338039) (xy 3.140484 -0.391512)
     (xy 3.124778 -0.439871) (xy 3.110859 -0.482703) (xy 3.098861 -0.519597) (xy 3.088917 -0.550141) (xy 3.081162 -0.573921) (xy 3.075728 -0.590526) (xy 3.072750 -0.599543) (xy 3.072545 -0.600151)
     (xy 3.058030 -0.634423) (xy 3.040145 -0.661064) (xy 3.018627 -0.680319) (xy 2.993212 -0.692434) (xy 2.968185 -0.697317) (xy 2.938880 -0.696017) (xy 2.910848 -0.687381) (xy 2.885945 -0.672283)
     (xy 2.866031 -0.651596) (xy 2.863675 -0.648195) (xy 2.861151 -0.642319) (xy 2.856109 -0.628581) (xy 2.848618 -0.607183) (xy 2.838742 -0.578327) (xy 2.826548 -0.542215) (xy 2.812103 -0.499046)
     (xy 2.795475 -0.449024) (xy 2.776728 -0.392350) (xy 2.755929 -0.329224) (xy 2.733146 -0.259849) (xy 2.708445 -0.184426) (xy 2.681892 -0.103156) (xy 2.653554 -0.016242) (xy 2.623497 0.076117)
     (xy 2.591789 0.173717) (xy 2.570461 0.239449) (xy 2.287733 1.111250) (xy 2.038750 1.112342) (xy 1.986239 1.112554) (xy 1.941582 1.112684) (xy 1.904169 1.112720) (xy 1.873386 1.112647)
     (xy 1.848624 1.112452) (xy 1.829268 1.112123) (xy 1.814710 1.111646) (xy 1.804335 1.111008) (xy 1.797533 1.110196) (xy 1.793692 1.109196) (xy 1.792200 1.107996) (xy 1.792233 1.107011)
     (xy 1.793759 1.102418) (xy 1.797773 1.090146) (xy 1.804154 1.070569) (xy 1.812781 1.044062) (xy 1.823531 1.011001) (xy 1.836282 0.971760) (xy 1.850914 0.926715) (xy 1.867304 0.876239)
     (xy 1.885331 0.820709) (xy 1.904872 0.760498) (xy 1.925807 0.695982) (xy 1.948013 0.627535) (xy 1.971369 0.555534) (xy 1.995753 0.480351) (xy 2.021043 0.402363) (xy 2.047118 0.321945)
     (xy 2.070188 0.250786) (xy 2.105438 0.142046) (xy 2.138174 0.041060) (xy 2.168496 -0.052471) (xy 2.196502 -0.138849) (xy 2.222293 -0.218371) (xy 2.245968 -0.291337) (xy 2.267627 -0.358048)
     (xy 2.287369 -0.418802) (xy 2.305295 -0.473899) (xy 2.321503 -0.523639) (xy 2.336094 -0.568320) (xy 2.349166 -0.608243) (xy 2.360820 -0.643707) (xy 2.371155 -0.675012) (xy 2.380271 -0.702457)
     (xy 2.388268 -0.726341) (xy 2.395244 -0.746964) (xy 2.401301 -0.764626) (xy 2.406536 -0.779626) (xy 2.411050 -0.792264) (xy 2.414943 -0.802839) (xy 2.418314 -0.811650) (xy 2.421263 -0.818998)
     (xy 2.423889 -0.825181) (xy 2.426293 -0.830499) (xy 2.428572 -0.835252) (xy 2.430828 -0.839739) (xy 2.433160 -0.844260) (xy 2.435668 -0.849114) (xy 2.436689 -0.851112) (xy 2.471996 -0.911340)
     (xy 2.513691 -0.966318) (xy 2.561219 -1.015638) (xy 2.614023 -1.058892) (xy 2.671546 -1.095672) (xy 2.733233 -1.125570) (xy 2.798526 -1.148179) (xy 2.861018 -1.162143) (xy 2.891308 -1.165737)
     (xy 2.926916 -1.167605) (xy 2.965362 -1.167812) (xy 3.004167 -1.166421) )(layer F.SilkS) (width  0.010000)
  )
)
