EESchema Schematic File Version 2
LIBS:power
LIBS:device
LIBS:switches
LIBS:relays
LIBS:motors
LIBS:transistors
LIBS:conn
LIBS:linear
LIBS:regul
LIBS:74xx
LIBS:cmos4000
LIBS:adc-dac
LIBS:memory
LIBS:xilinx
LIBS:microcontrollers
LIBS:dsp
LIBS:microchip
LIBS:analog_switches
LIBS:motorola
LIBS:texas
LIBS:intel
LIBS:audio
LIBS:interface
LIBS:digital-audio
LIBS:philips
LIBS:display
LIBS:cypress
LIBS:siliconi
LIBS:opto
LIBS:atmel
LIBS:contrib
LIBS:valves
LIBS:ARCSS_Breakouts
LIBS:ARCSS_Electromechanical
LIBS:ARCSS_Fab
LIBS:ARCSS_Sensors
EELAYER 25 0
EELAYER END
$Descr A4 11693 8268
encoding utf-8
Sheet 1 1
Title ""
Date ""
Rev ""
Comp ""
Comment1 ""
Comment2 ""
Comment3 ""
Comment4 ""
$EndDescr
$Comp
L BC832 B1
U 1 1 5B451EAF
P 5350 2700
F 0 "B1" H 6050 2200 60  0000 C CNN
F 1 "BC832" H 5300 3250 60  0000 C CNN
F 2 "ARCSS-Fab:BC832_NoBGA" H 5350 2700 60  0001 C CNN
F 3 "" H 5350 2700 60  0001 C CNN
	1    5350 2700
	1    0    0    -1  
$EndComp
$Comp
L Conn_02x05_Odd_Even J1
U 1 1 5B451F14
P 3350 2750
F 0 "J1" H 3400 3050 50  0000 C CNN
F 1 "Conn_02x05_Odd_Even" H 3400 2450 50  0000 C CNN
F 2 "Pin_Headers:Pin_Header_Straight_2x05_Pitch1.27mm_SMD" H 3350 2750 50  0001 C CNN
F 3 "" H 3350 2750 50  0001 C CNN
	1    3350 2750
	1    0    0    -1  
$EndComp
$Comp
L +3.3V #PWR01
U 1 1 5B451F71
P 3050 2450
F 0 "#PWR01" H 3050 2300 50  0001 C CNN
F 1 "+3.3V" H 3050 2590 50  0000 C CNN
F 2 "" H 3050 2450 50  0001 C CNN
F 3 "" H 3050 2450 50  0001 C CNN
	1    3050 2450
	1    0    0    -1  
$EndComp
$Comp
L +3.3V #PWR02
U 1 1 5B451F9F
P 6350 2250
F 0 "#PWR02" H 6350 2100 50  0001 C CNN
F 1 "+3.3V" H 6350 2390 50  0000 C CNN
F 2 "" H 6350 2250 50  0001 C CNN
F 3 "" H 6350 2250 50  0001 C CNN
	1    6350 2250
	1    0    0    -1  
$EndComp
$Comp
L GND #PWR03
U 1 1 5B451FED
P 3000 4400
F 0 "#PWR03" H 3000 4150 50  0001 C CNN
F 1 "GND" H 3000 4250 50  0000 C CNN
F 2 "" H 3000 4400 50  0001 C CNN
F 3 "" H 3000 4400 50  0001 C CNN
	1    3000 4400
	1    0    0    -1  
$EndComp
$Comp
L GND #PWR04
U 1 1 5B4520A4
P 4200 2050
F 0 "#PWR04" H 4200 1800 50  0001 C CNN
F 1 "GND" H 4200 1900 50  0000 C CNN
F 2 "" H 4200 2050 50  0001 C CNN
F 3 "" H 4200 2050 50  0001 C CNN
	1    4200 2050
	1    0    0    -1  
$EndComp
$Comp
L UMFT234XF U1
U 1 1 5B4FA91F
P 3400 3900
F 0 "U1" H 3250 3950 60  0000 C CNN
F 1 "UMFT234XF" H 3400 4400 39  0000 C CNN
F 2 "ARCSS-Fab:UMFT234XF" H 3450 4000 60  0001 C CNN
F 3 "" H 3450 4000 60  0001 C CNN
	1    3400 3900
	1    0    0    -1  
$EndComp
$Comp
L +3.3V #PWR05
U 1 1 5B4FAAD1
P 3850 3400
F 0 "#PWR05" H 3850 3250 50  0001 C CNN
F 1 "+3.3V" H 3850 3540 50  0000 C CNN
F 2 "" H 3850 3400 50  0001 C CNN
F 3 "" H 3850 3400 50  0001 C CNN
	1    3850 3400
	1    0    0    -1  
$EndComp
$Comp
L GND #PWR06
U 1 1 5B4FABF0
P 3050 3100
F 0 "#PWR06" H 3050 2850 50  0001 C CNN
F 1 "GND" H 3050 2950 50  0000 C CNN
F 2 "" H 3050 3100 50  0001 C CNN
F 3 "" H 3050 3100 50  0001 C CNN
	1    3050 3100
	1    0    0    -1  
$EndComp
$Comp
L XTAL_32768 X1
U 1 1 5B4FADD2
P 7100 3100
F 0 "X1" H 7100 2950 60  0000 C CNN
F 1 "XTAL_32768" H 7100 3250 39  0000 C CNN
F 2 "ARCSS-Fab:LFXTAL003000" H 7100 3100 60  0001 C CNN
F 3 "" H 7100 3100 60  0001 C CNN
	1    7100 3100
	1    0    0    -1  
$EndComp
$Comp
L Capacitor C2
U 1 1 5B4FAF95
P 7300 3400
F 0 "C2" H 7200 3300 60  0000 C CNN
F 1 "Capacitor" H 7300 3400 39  0000 C CNN
F 2 "Capacitors_SMD:C_1206_HandSoldering" H 7300 3400 60  0001 C CNN
F 3 "" H 7300 3400 60  0001 C CNN
	1    7300 3400
	-1   0    0    1   
$EndComp
$Comp
L Capacitor C1
U 1 1 5B4FAFE5
P 6900 3400
F 0 "C1" H 7000 3300 60  0000 C CNN
F 1 "Capacitor" H 6900 3400 39  0000 C CNN
F 2 "Capacitors_SMD:C_1206_HandSoldering" H 6900 3400 60  0001 C CNN
F 3 "" H 6900 3400 60  0001 C CNN
	1    6900 3400
	-1   0    0    1   
$EndComp
Wire Wire Line
	3050 2450 3050 2550
Wire Wire Line
	3050 2550 3150 2550
Wire Wire Line
	6350 2250 6350 2350
Wire Wire Line
	6350 2350 6250 2350
Wire Wire Line
	3050 2950 3150 2950
Wire Wire Line
	3050 2650 3050 3100
Wire Wire Line
	3150 2750 3050 2750
Connection ~ 3050 2950
Wire Wire Line
	3150 2650 3050 2650
Connection ~ 3050 2750
Wire Wire Line
	4450 2550 3650 2550
Wire Wire Line
	3650 2650 4450 2650
Wire Wire Line
	4450 2350 4400 2350
Wire Wire Line
	4400 2350 4400 1950
Wire Wire Line
	4400 1950 4200 1950
Wire Wire Line
	4200 1950 4200 2050
Wire Wire Line
	3050 4350 3000 4350
Wire Wire Line
	3000 4350 3000 4400
Wire Wire Line
	3750 3500 3850 3500
Wire Wire Line
	3850 3500 3850 3400
Wire Wire Line
	3750 3750 4200 3750
Wire Wire Line
	4200 3750 4200 2950
Wire Wire Line
	4200 2950 4450 2950
Wire Wire Line
	4450 3050 4300 3050
Wire Wire Line
	4300 3050 4300 3850
Wire Wire Line
	4300 3850 3750 3850
Wire Wire Line
	7250 3100 7300 3100
Wire Wire Line
	7300 2750 7300 3300
Wire Wire Line
	6950 3100 6900 3100
Wire Wire Line
	6900 2850 6900 3300
Connection ~ 7300 3100
Connection ~ 6900 3100
$Comp
L GND #PWR07
U 1 1 5B4FB0A4
P 7100 3650
F 0 "#PWR07" H 7100 3400 50  0001 C CNN
F 1 "GND" H 7100 3500 50  0000 C CNN
F 2 "" H 7100 3650 50  0001 C CNN
F 3 "" H 7100 3650 50  0001 C CNN
	1    7100 3650
	1    0    0    -1  
$EndComp
Wire Wire Line
	7100 3550 7100 3650
Wire Wire Line
	6900 3550 7300 3550
Wire Wire Line
	7300 3550 7300 3500
Wire Wire Line
	6900 3550 6900 3500
Connection ~ 7100 3550
Wire Wire Line
	6250 2750 7300 2750
Wire Wire Line
	6900 2850 6250 2850
$Comp
L Resistor R1
U 1 1 5B4FB70F
P 1850 3350
F 0 "R1" H 1850 3250 60  0000 C CNN
F 1 "Resistor" H 1850 3350 39  0000 C CNN
F 2 "Resistors_SMD:R_1206_HandSoldering" H 1850 3350 60  0001 C CNN
F 3 "" H 1850 3350 60  0001 C CNN
	1    1850 3350
	0    1    1    0   
$EndComp
$Comp
L LED D1
U 1 1 5B4FB778
P 1850 3800
F 0 "D1" H 1850 3900 50  0000 C CNN
F 1 "LED" H 1850 3700 50  0000 C CNN
F 2 "LEDs:LED_1206_HandSoldering" H 1850 3800 50  0001 C CNN
F 3 "" H 1850 3800 50  0001 C CNN
	1    1850 3800
	0    -1   -1   0   
$EndComp
$Comp
L GND #PWR08
U 1 1 5B4FB7C9
P 1850 4050
F 0 "#PWR08" H 1850 3800 50  0001 C CNN
F 1 "GND" H 1850 3900 50  0000 C CNN
F 2 "" H 1850 4050 50  0001 C CNN
F 3 "" H 1850 4050 50  0001 C CNN
	1    1850 4050
	1    0    0    -1  
$EndComp
Wire Wire Line
	4450 2750 4350 2750
Wire Wire Line
	1850 3050 1850 3150
Wire Wire Line
	1850 3550 1850 3650
Wire Wire Line
	1850 3950 1850 4050
$Comp
L Resistor R2
U 1 1 5B4FB973
P 2200 3350
F 0 "R2" H 2200 3250 60  0000 C CNN
F 1 "Resistor" H 2200 3350 39  0000 C CNN
F 2 "Resistors_SMD:R_1206_HandSoldering" H 2200 3350 60  0001 C CNN
F 3 "" H 2200 3350 60  0001 C CNN
	1    2200 3350
	0    1    1    0   
$EndComp
$Comp
L LED D2
U 1 1 5B4FB979
P 2200 3800
F 0 "D2" H 2200 3900 50  0000 C CNN
F 1 "LED" H 2200 3700 50  0000 C CNN
F 2 "LEDs:LED_1206_HandSoldering" H 2200 3800 50  0001 C CNN
F 3 "" H 2200 3800 50  0001 C CNN
	1    2200 3800
	0    -1   -1   0   
$EndComp
$Comp
L GND #PWR09
U 1 1 5B4FB97F
P 2200 4050
F 0 "#PWR09" H 2200 3800 50  0001 C CNN
F 1 "GND" H 2200 3900 50  0000 C CNN
F 2 "" H 2200 4050 50  0001 C CNN
F 3 "" H 2200 4050 50  0001 C CNN
	1    2200 4050
	1    0    0    -1  
$EndComp
Wire Wire Line
	2200 3050 2200 3150
Wire Wire Line
	2200 3550 2200 3650
Wire Wire Line
	2200 3950 2200 4050
Text GLabel 4350 2750 0    60   Input ~ 0
LED1
Text GLabel 4350 2450 0    60   Input ~ 0
LED0
Wire Wire Line
	4450 2450 4350 2450
Text GLabel 1850 3050 1    60   Input ~ 0
LED0
Text GLabel 2200 3050 1    60   Input ~ 0
LED1
$Comp
L TactileSwitch S1
U 1 1 5B4FBFA3
P 6550 3450
F 0 "S1" H 6550 3300 60  0000 C CNN
F 1 "TactileSwitch" H 6550 3650 39  0000 C CNN
F 2 "ARCSS-Fab:PUSH_SWITCH" H 6550 3450 60  0001 C CNN
F 3 "" H 6550 3450 60  0001 C CNN
	1    6550 3450
	1    0    0    -1  
$EndComp
Wire Wire Line
	6350 3050 6750 3050
Wire Wire Line
	6350 3350 6400 3350
Wire Wire Line
	6750 3050 6750 3350
Wire Wire Line
	6750 3350 6700 3350
Wire Wire Line
	6700 3550 6750 3550
Wire Wire Line
	6750 3550 6750 3700
Wire Wire Line
	6750 3700 6350 3700
Wire Wire Line
	6350 3700 6350 3550
Wire Wire Line
	6350 3550 6400 3550
$Comp
L GND #PWR010
U 1 1 5B4FC1D0
P 6550 3750
F 0 "#PWR010" H 6550 3500 50  0001 C CNN
F 1 "GND" H 6550 3600 50  0000 C CNN
F 2 "" H 6550 3750 50  0001 C CNN
F 3 "" H 6550 3750 50  0001 C CNN
	1    6550 3750
	1    0    0    -1  
$EndComp
Wire Wire Line
	6550 3700 6550 3750
Connection ~ 6550 3700
Wire Wire Line
	6350 3050 6350 3350
Wire Wire Line
	6250 2950 6550 2950
Wire Wire Line
	6550 2950 6550 3050
Connection ~ 6550 3050
$EndSCHEMATC
