(module NRF52840-aQFN73 (layer F.Cu) (tedit 5CA3D255)
  (fp_text reference REF** (at 1.75 5) (layer F.SilkS)
    (effects (font (size 1 1) (thickness 0.15)))
  )
  (fp_text value NRF52840-aQFN73 (at 0 -5) (layer F.Fab)
    (effects (font (size 1 1) (thickness 0.15)))
  )
  (fp_circle (center -4 -4) (end -3.75 -3.75) (layer F.SilkS) (width 0.15))
  (fp_line (start -3.75 -3) (end -3 -3.75) (layer F.SilkS) (width 0.15))
  (fp_line (start -3.75 3.75) (end -3.75 -3) (layer F.SilkS) (width 0.15))
  (fp_line (start 3.75 3.75) (end -3.75 3.75) (layer F.SilkS) (width 0.15))
  (fp_line (start 3.75 -3.75) (end 3.75 3.75) (layer F.SilkS) (width 0.15))
  (fp_line (start -3 -3.75) (end 3.75 -3.75) (layer F.SilkS) (width 0.15))
  (pad 1 smd rect (at 0 0) (size 3.5 3.5) (layers F.Cu F.Paste F.Mask))
  (pad AC13 smd circle (at 0 2.75) (size 0.25 0.25) (layers F.Cu F.Paste F.Mask))
  (pad AC15 smd circle (at 0.5 2.75) (size 0.25 0.25) (layers F.Cu F.Paste F.Mask))
  (pad AC17 smd circle (at 1 2.75) (size 0.25 0.25) (layers F.Cu F.Paste F.Mask))
  (pad AC19 smd circle (at 1.5 2.75) (size 0.25 0.25) (layers F.Cu F.Paste F.Mask))
  (pad AC21 smd circle (at 2 2.75) (size 0.25 0.25) (layers F.Cu F.Paste F.Mask))
  (pad AC11 smd circle (at -0.5 2.75) (size 0.25 0.25) (layers F.Cu F.Paste F.Mask))
  (pad AC9 smd circle (at -1 2.75) (size 0.25 0.25) (layers F.Cu F.Paste F.Mask))
  (pad AC5 smd circle (at -2 2.75) (size 0.25 0.25) (layers F.Cu F.Paste F.Mask))
  (pad AD18 smd circle (at 1.25 3.25) (size 0.25 0.25) (layers F.Cu F.Paste F.Mask))
  (pad AD20 smd circle (at 1.75 3.25) (size 0.25 0.25) (layers F.Cu F.Paste F.Mask))
  (pad AD14 smd circle (at 0.25 3.25) (size 0.25 0.25) (layers F.Cu F.Paste F.Mask))
  (pad AD16 smd circle (at 0.75 3.25) (size 0.25 0.25) (layers F.Cu F.Paste F.Mask))
  (pad AD6 smd circle (at -1.75 3.25) (size 0.25 0.25) (layers F.Cu F.Paste F.Mask))
  (pad AD8 smd circle (at -1.25 3.25) (size 0.25 0.25) (layers F.Cu F.Paste F.Mask))
  (pad AD10 smd circle (at -0.75 3.25) (size 0.25 0.25) (layers F.Cu F.Paste F.Mask))
  (pad AD4 smd circle (at -2.25 3.25) (size 0.25 0.25) (layers F.Cu F.Paste F.Mask))
  (pad AD12 smd circle (at -0.25 3.25) (size 0.25 0.25) (layers F.Cu F.Paste F.Mask))
  (pad AD22 smd circle (at 2.25 3.25) (size 0.25 0.25) (layers F.Cu F.Paste F.Mask))
  (pad AD2 smd circle (at -2.75 3.25) (size 0.25 0.25) (layers F.Cu F.Paste F.Mask))
  (pad J24 smd circle (at 3.25 -0.75 90) (size 0.25 0.25) (layers F.Cu F.Paste F.Mask))
  (pad E23 smd circle (at 3.25 -1.75 90) (size 0.25 0.25) (layers F.Cu F.Paste F.Mask))
  (pad N24 smd circle (at 3.25 0.25 90) (size 0.25 0.25) (layers F.Cu F.Paste F.Mask))
  (pad L24 smd circle (at 3.25 -0.25 90) (size 0.25 0.25) (layers F.Cu F.Paste F.Mask))
  (pad T23 smd circle (at 2.75 1 90) (size 0.25 0.25) (layers F.Cu F.Paste F.Mask))
  (pad U24 smd circle (at 3.25 1.25 90) (size 0.25 0.25) (layers F.Cu F.Paste F.Mask))
  (pad AA24 smd circle (at 3.25 2.25 90) (size 0.25 0.25) (layers F.Cu F.Paste F.Mask))
  (pad R24 smd circle (at 3.25 0.75 90) (size 0.25 0.25) (layers F.Cu F.Paste F.Mask))
  (pad W24 smd circle (at 3.25 1.75 90) (size 0.25 0.25) (layers F.Cu F.Paste F.Mask))
  (pad F23 smd circle (at 2.75 -1.5 90) (size 0.25 0.25) (layers F.Cu F.Paste F.Mask))
  (pad D23 smd circle (at 2.75 -2 90) (size 0.25 0.25) (layers F.Cu F.Paste F.Mask))
  (pad Y23 smd circle (at 2.75 2 90) (size 0.25 0.25) (layers F.Cu F.Paste F.Mask))
  (pad H23 smd circle (at 2.75 -1 90) (size 0.25 0.25) (layers F.Cu F.Paste F.Mask))
  (pad P23 smd circle (at 2.75 0.5 90) (size 0.25 0.25) (layers F.Cu F.Paste F.Mask))
  (pad R1 smd circle (at -3.25 0.75 270) (size 0.25 0.25) (layers F.Cu F.Paste F.Mask))
  (pad J1 smd circle (at -3.25 -0.75 270) (size 0.25 0.25) (layers F.Cu F.Paste F.Mask))
  (pad L1 smd circle (at -3.25 -0.25 270) (size 0.25 0.25) (layers F.Cu F.Paste F.Mask))
  (pad N1 smd circle (at -3.25 0.25 270) (size 0.25 0.25) (layers F.Cu F.Paste F.Mask))
  (pad P2 smd circle (at -2.75 0.5 270) (size 0.25 0.25) (layers F.Cu F.Paste F.Mask))
  (pad M2 smd circle (at -2.75 0 270) (size 0.25 0.25) (layers F.Cu F.Paste F.Mask))
  (pad K2 smd circle (at -2.75 -0.5 270) (size 0.25 0.25) (layers F.Cu F.Paste F.Mask))
  (pad T2 smd circle (at -2.75 1 270) (size 0.25 0.25) (layers F.Cu F.Paste F.Mask))
  (pad Y2 smd circle (at -2.75 2 270) (size 0.25 0.25) (layers F.Cu F.Paste F.Mask))
  (pad W1 smd circle (at -3.25 1.75 270) (size 0.25 0.25) (layers F.Cu F.Paste F.Mask))
  (pad U1 smd circle (at -3.25 1.25 270) (size 0.25 0.25) (layers F.Cu F.Paste F.Mask))
  (pad H2 smd circle (at -2.75 -1 270) (size 0.25 0.25) (layers F.Cu F.Paste F.Mask))
  (pad G1 smd circle (at -3.25 -1.25 270) (size 0.25 0.25) (layers F.Cu F.Paste F.Mask))
  (pad C1 smd circle (at -3.25 -2.25 270) (size 0.25 0.25) (layers F.Cu F.Paste F.Mask))
  (pad D2 smd circle (at -2.75 -2 270) (size 0.25 0.25) (layers F.Cu F.Paste F.Mask))
  (pad AB2 smd circle (at -2.75 2.5 270) (size 0.25 0.25) (layers F.Cu F.Paste F.Mask))
  (pad F2 smd circle (at -2.75 -1.5 270) (size 0.25 0.25) (layers F.Cu F.Paste F.Mask))
  (pad V23 smd circle (at 2.75 1.5 90) (size 0.25 0.25) (layers F.Cu F.Paste F.Mask))
  (pad AC24 smd circle (at 3.25 2.75 90) (size 0.25 0.25) (layers F.Cu F.Paste F.Mask))
  (pad AD23 smd circle (at 2.75 3.25) (size 0.25 0.25) (layers F.Cu F.Paste F.Mask))
  (pad B24 smd circle (at 3.25 -2.75 90) (size 0.25 0.25) (layers F.Cu F.Paste F.Mask))
  (pad A23 smd circle (at 2.75 -3.25) (size 0.25 0.25) (layers F.Cu F.Paste F.Mask))
  (pad B13 smd circle (at 0 -2.75) (size 0.25 0.25) (layers F.Cu F.Paste F.Mask))
  (pad A14 smd circle (at 0.25 -3.25) (size 0.25 0.25) (layers F.Cu F.Paste F.Mask))
  (pad A12 smd circle (at -0.25 -3.25) (size 0.25 0.25) (layers F.Cu F.Paste F.Mask))
  (pad B15 smd circle (at 0.5 -2.75) (size 0.25 0.25) (layers F.Cu F.Paste F.Mask))
  (pad A16 smd circle (at 0.75 -3.25) (size 0.25 0.25) (layers F.Cu F.Paste F.Mask))
  (pad B11 smd circle (at -0.5 -2.75) (size 0.25 0.25) (layers F.Cu F.Paste F.Mask))
  (pad B17 smd circle (at 1 -2.75) (size 0.25 0.25) (layers F.Cu F.Paste F.Mask))
  (pad A18 smd circle (at 1.25 -3.25) (size 0.25 0.25) (layers F.Cu F.Paste F.Mask))
  (pad A22 smd circle (at 2.25 -3.25) (size 0.25 0.25) (layers F.Cu F.Paste F.Mask))
  (pad B19 smd circle (at 1.5 -2.75) (size 0.25 0.25) (layers F.Cu F.Paste F.Mask))
  (pad B7 smd circle (at -1.5 -2.75) (size 0.25 0.25) (layers F.Cu F.Paste F.Mask))
  (pad B9 smd circle (at -1 -2.75) (size 0.25 0.25) (layers F.Cu F.Paste F.Mask))
  (pad A10 smd circle (at -0.75 -3.25) (size 0.25 0.25) (layers F.Cu F.Paste F.Mask))
  (pad B5 smd circle (at -2 -2.75) (size 0.25 0.25) (layers F.Cu F.Paste F.Mask))
  (pad A8 smd circle (at -1.25 -3.25) (size 0.25 0.25) (layers F.Cu F.Paste F.Mask))
  (pad B1 smd circle (at -3.25 -2.75 270) (size 0.25 0.25) (layers F.Cu F.Paste F.Mask))
  (pad A20 smd circle (at 1.75 -3.25) (size 0.25 0.25) (layers F.Cu F.Paste F.Mask))
  (pad B3 smd circle (at -2.5 -2.75) (size 0.25 0.25) (layers F.Cu F.Paste F.Mask))
)
