EESchema Schematic File Version 4
LIBS:BC840-Breakout-cache
EELAYER 29 0
EELAYER END
$Descr A4 11693 8268
encoding utf-8
Sheet 1 1
Title ""
Date ""
Rev ""
Comp ""
Comment1 ""
Comment2 ""
Comment3 ""
Comment4 ""
$EndDescr
$Comp
L BC840-Breakout-rescue:Conn_02x05_Odd_Even J1
U 1 1 5B451F14
P 1750 1000
F 0 "J1" H 1800 1300 50  0000 C CNN
F 1 "Conn_02x05_Odd_Even" H 1800 700 50  0000 C CNN
F 2 "ARCSS-Fab:SWD_2x05_HANDSOLDER" H 1750 1000 50  0001 C CNN
F 3 "" H 1750 1000 50  0001 C CNN
	1    1750 1000
	1    0    0    -1  
$EndComp
$Comp
L BC840-Breakout-rescue:+3.3V #PWR01
U 1 1 5B451F71
P 1450 700
F 0 "#PWR01" H 1450 550 50  0001 C CNN
F 1 "+3.3V" H 1450 840 50  0000 C CNN
F 2 "" H 1450 700 50  0001 C CNN
F 3 "" H 1450 700 50  0001 C CNN
	1    1450 700 
	1    0    0    -1  
$EndComp
$Comp
L BC840-Breakout-rescue:GND #PWR02
U 1 1 5B451FED
P 1650 5650
F 0 "#PWR02" H 1650 5400 50  0001 C CNN
F 1 "GND" H 1650 5500 50  0000 C CNN
F 2 "" H 1650 5650 50  0001 C CNN
F 3 "" H 1650 5650 50  0001 C CNN
	1    1650 5650
	1    0    0    -1  
$EndComp
$Comp
L BC840-Breakout-rescue:UMFT234XF U1
U 1 1 5B4FA91F
P 2050 5150
F 0 "U1" H 1900 5200 60  0000 C CNN
F 1 "UMFT234XF" H 2050 5650 39  0000 C CNN
F 2 "ARCSS-Fab:UMFT234XF" H 2100 5250 60  0001 C CNN
F 3 "" H 2100 5250 60  0001 C CNN
	1    2050 5150
	1    0    0    -1  
$EndComp
$Comp
L BC840-Breakout-rescue:+3.3V #PWR03
U 1 1 5B4FAAD1
P 2500 4650
F 0 "#PWR03" H 2500 4500 50  0001 C CNN
F 1 "+3.3V" H 2500 4790 50  0000 C CNN
F 2 "" H 2500 4650 50  0001 C CNN
F 3 "" H 2500 4650 50  0001 C CNN
	1    2500 4650
	1    0    0    -1  
$EndComp
$Comp
L BC840-Breakout-rescue:GND #PWR04
U 1 1 5B4FABF0
P 1450 1350
F 0 "#PWR04" H 1450 1100 50  0001 C CNN
F 1 "GND" H 1450 1200 50  0000 C CNN
F 2 "" H 1450 1350 50  0001 C CNN
F 3 "" H 1450 1350 50  0001 C CNN
	1    1450 1350
	1    0    0    -1  
$EndComp
$Comp
L BC840-Breakout-rescue:XTAL_32768 X1
U 1 1 5B4FADD2
P 2000 2050
F 0 "X1" H 2000 1900 60  0000 C CNN
F 1 "XTAL_32768" H 2000 2200 39  0000 C CNN
F 2 "ARCSS-Fab:LFXTAL003000" H 2000 2050 60  0001 C CNN
F 3 "" H 2000 2050 60  0001 C CNN
	1    2000 2050
	1    0    0    -1  
$EndComp
$Comp
L BC840-Breakout-rescue:Capacitor C2
U 1 1 5B4FAF95
P 2200 2300
F 0 "C2" H 2100 2200 60  0000 C CNN
F 1 "Capacitor" H 2200 2300 39  0000 C CNN
F 2 "Capacitors_SMD:C_1206_HandSoldering" H 2200 2300 60  0001 C CNN
F 3 "" H 2200 2300 60  0001 C CNN
	1    2200 2300
	1    0    0    -1  
$EndComp
$Comp
L BC840-Breakout-rescue:Capacitor C1
U 1 1 5B4FAFE5
P 1800 2300
F 0 "C1" H 1900 2200 60  0000 C CNN
F 1 "Capacitor" H 1800 2300 39  0000 C CNN
F 2 "Capacitors_SMD:C_1206_HandSoldering" H 1800 2300 60  0001 C CNN
F 3 "" H 1800 2300 60  0001 C CNN
	1    1800 2300
	-1   0    0    1   
$EndComp
Wire Wire Line
	1450 700  1450 800 
Wire Wire Line
	1450 800  1550 800 
Wire Wire Line
	1450 1200 1550 1200
Wire Wire Line
	1450 900  1450 1000
Wire Wire Line
	1550 1000 1450 1000
Connection ~ 1450 1200
Wire Wire Line
	1550 900  1450 900 
Connection ~ 1450 1000
Wire Wire Line
	2150 800  2050 800 
Wire Wire Line
	2050 900  2150 900 
Wire Wire Line
	1700 5600 1650 5600
Wire Wire Line
	1650 5600 1650 5650
Wire Wire Line
	2400 4750 2500 4750
Wire Wire Line
	2500 4750 2500 4650
Wire Wire Line
	2400 5000 2450 5000
Wire Wire Line
	2450 5100 2400 5100
$Comp
L BC840-Breakout-rescue:GND #PWR05
U 1 1 5B4FB0A4
P 2000 2500
F 0 "#PWR05" H 2000 2250 50  0001 C CNN
F 1 "GND" H 2000 2350 50  0000 C CNN
F 2 "" H 2000 2500 50  0001 C CNN
F 3 "" H 2000 2500 50  0001 C CNN
	1    2000 2500
	1    0    0    -1  
$EndComp
$Comp
L BC840-Breakout-rescue:TactileSwitch S1
U 1 1 5B4FBFA3
P 2700 3600
F 0 "S1" H 2700 3450 60  0000 C CNN
F 1 "TactileSwitch" H 2700 3800 39  0000 C CNN
F 2 "ARCSS-Fab:PUSH_SWITCH" H 2700 3600 60  0001 C CNN
F 3 "" H 2700 3600 60  0001 C CNN
	1    2700 3600
	1    0    0    -1  
$EndComp
Wire Wire Line
	2500 3200 2700 3200
Wire Wire Line
	2500 3500 2550 3500
Wire Wire Line
	2900 3200 2900 3500
Wire Wire Line
	2900 3500 2850 3500
Wire Wire Line
	2850 3700 2900 3700
Wire Wire Line
	2900 3700 2900 3850
Wire Wire Line
	2900 3850 2700 3850
Wire Wire Line
	2500 3850 2500 3700
Wire Wire Line
	2500 3700 2550 3700
$Comp
L BC840-Breakout-rescue:GND #PWR07
U 1 1 5B4FC1D0
P 2700 3900
F 0 "#PWR07" H 2700 3650 50  0001 C CNN
F 1 "GND" H 2700 3750 50  0000 C CNN
F 2 "" H 2700 3900 50  0001 C CNN
F 3 "" H 2700 3900 50  0001 C CNN
	1    2700 3900
	1    0    0    -1  
$EndComp
Wire Wire Line
	2700 3850 2700 3900
Connection ~ 2700 3850
Wire Wire Line
	2500 3200 2500 3500
Wire Wire Line
	2700 3100 2700 3200
Connection ~ 2700 3200
$Comp
L BC840-Breakout-rescue:BT840 BT1
U 1 1 5B9AF845
P 5450 2000
F 0 "BT1" H 6100 2750 60  0000 C CNN
F 1 "BT840" H 6400 2750 60  0000 C CNN
F 2 "ARCSS-Breakout:BT840F-NoBGA" H 5450 2000 60  0001 C CNN
F 3 "" H 5450 2000 60  0001 C CNN
	1    5450 2000
	1    0    0    -1  
$EndComp
Text GLabel 2150 800  2    60   Input ~ 0
SWDIO
Text GLabel 2150 900  2    60   Input ~ 0
SWDCLK
Text GLabel 7000 1650 2    60   Input ~ 0
SWDIO
Text GLabel 7000 1750 2    60   Input ~ 0
SWDCLK
Wire Wire Line
	2200 2450 2200 2400
Wire Wire Line
	1800 2450 2000 2450
Wire Wire Line
	1800 2450 1800 2400
Wire Wire Line
	2000 2450 2000 2500
Connection ~ 2000 2450
Wire Wire Line
	2150 2050 2200 2050
Wire Wire Line
	2200 1950 2200 2050
Wire Wire Line
	1850 2050 1800 2050
Wire Wire Line
	1800 1800 1800 2050
Wire Wire Line
	6850 1650 7000 1650
Wire Wire Line
	6850 1750 7000 1750
Text GLabel 4000 1850 0    60   Input ~ 0
XL1
Text GLabel 4000 1950 0    60   Input ~ 0
XL2
Wire Wire Line
	4050 1850 4000 1850
Wire Wire Line
	4050 1950 4000 1950
Text GLabel 2300 1800 2    60   Input ~ 0
XL1
Text GLabel 2300 1950 2    60   Input ~ 0
XL2
Wire Wire Line
	2300 1950 2200 1950
Connection ~ 2200 2050
Wire Wire Line
	2300 1800 1800 1800
Connection ~ 1800 2050
Text GLabel 7000 1850 2    60   Input ~ 0
RESET
Wire Wire Line
	6850 1850 7000 1850
$Comp
L BC840-Breakout-rescue:+3.3V #PWR08
U 1 1 5B9C01F0
P 7900 2200
F 0 "#PWR08" H 7900 2050 50  0001 C CNN
F 1 "+3.3V" H 7900 2340 50  0000 C CNN
F 2 "" H 7900 2200 50  0001 C CNN
F 3 "" H 7900 2200 50  0001 C CNN
	1    7900 2200
	1    0    0    -1  
$EndComp
$Comp
L BC840-Breakout-rescue:GND #PWR09
U 1 1 5B9C0219
P 6950 2450
F 0 "#PWR09" H 6950 2200 50  0001 C CNN
F 1 "GND" H 6950 2300 50  0000 C CNN
F 2 "" H 6950 2450 50  0001 C CNN
F 3 "" H 6950 2450 50  0001 C CNN
	1    6950 2450
	1    0    0    -1  
$EndComp
Wire Wire Line
	6850 2250 6950 2250
Wire Wire Line
	6950 2250 6950 2450
Wire Wire Line
	6850 2350 7900 2350
Wire Wire Line
	7900 2350 7900 2200
Text GLabel 2700 3100 1    60   Input ~ 0
RESET
Text GLabel 4000 1750 0    60   Input ~ 0
UART_RX
Text GLabel 4000 1650 0    60   Input ~ 0
UART_TX
Text GLabel 2450 5000 2    60   Input ~ 0
UART_RX
Text GLabel 2450 5100 2    60   Input ~ 0
UART_TX
Wire Wire Line
	4050 1650 4000 1650
Wire Wire Line
	4050 1750 4000 1750
Wire Wire Line
	1450 1200 1450 1350
Wire Wire Line
	1450 1000 1450 1200
Wire Wire Line
	2700 3850 2500 3850
Wire Wire Line
	2700 3200 2900 3200
Wire Wire Line
	2000 2450 2200 2450
Wire Wire Line
	2200 2050 2200 2200
Wire Wire Line
	1800 2050 1800 2200
$Comp
L Connector:Conn_01x06_Male J2
U 1 1 5CBA65E4
P 5350 4100
F 0 "J2" H 5458 4481 50  0000 C CNN
F 1 "Conn_01x06_Male" H 5458 4390 50  0000 C CNN
F 2 "Pin_Headers:Pin_Header_Straight_2x03_Pitch2.54mm_SMD" H 5350 4100 50  0001 C CNN
F 3 "~" H 5350 4100 50  0001 C CNN
	1    5350 4100
	1    0    0    -1  
$EndComp
$Comp
L BC840-Breakout-rescue:GND #PWR0101
U 1 1 5CBA745D
P 5650 4000
F 0 "#PWR0101" H 5650 3750 50  0001 C CNN
F 1 "GND" H 5650 3850 50  0000 C CNN
F 2 "" H 5650 4000 50  0001 C CNN
F 3 "" H 5650 4000 50  0001 C CNN
	1    5650 4000
	0    -1   -1   0   
$EndComp
$Comp
L BC840-Breakout-rescue:+3.3V #PWR0102
U 1 1 5CBA79C4
P 5700 3900
F 0 "#PWR0102" H 5700 3750 50  0001 C CNN
F 1 "+3.3V" H 5700 4040 50  0000 C CNN
F 2 "" H 5700 3900 50  0001 C CNN
F 3 "" H 5700 3900 50  0001 C CNN
	1    5700 3900
	0    1    1    0   
$EndComp
$Comp
L Device:LED_RABG D1
U 1 1 5CBAC9EE
P 7950 3150
F 0 "D1" H 7950 3647 50  0000 C CNN
F 1 "LED_RABG" H 7950 3556 50  0000 C CNN
F 2 "ARCSS-Advanced:LED_RGB_1210" H 7950 3100 50  0001 C CNN
F 3 "~" H 7950 3100 50  0001 C CNN
	1    7950 3150
	0    -1   -1   0   
$EndComp
$Comp
L BC840-Breakout-rescue:Resistor R4
U 1 1 5CBAE68F
P 7750 3650
F 0 "R4" H 7750 3550 60  0000 C CNN
F 1 "65R" H 7750 3650 39  0000 C CNN
F 2 "Resistors_SMD:R_1206_HandSoldering" H 7750 3650 60  0001 C CNN
F 3 "" H 7750 3650 60  0001 C CNN
	1    7750 3650
	0    1    1    0   
$EndComp
$Comp
L BC840-Breakout-rescue:Resistor R6
U 1 1 5CBAF6FF
P 7950 3650
F 0 "R6" H 7950 3550 60  0000 C CNN
F 1 "5R" H 7950 3650 39  0000 C CNN
F 2 "Resistors_SMD:R_1206_HandSoldering" H 7950 3650 60  0001 C CNN
F 3 "" H 7950 3650 60  0001 C CNN
	1    7950 3650
	0    1    1    0   
$EndComp
$Comp
L BC840-Breakout-rescue:Resistor R7
U 1 1 5CBAFBFA
P 8150 3650
F 0 "R7" H 8150 3550 60  0000 C CNN
F 1 "5R" H 8150 3650 39  0000 C CNN
F 2 "Resistors_SMD:R_1206_HandSoldering" H 8150 3650 60  0001 C CNN
F 3 "" H 8150 3650 60  0001 C CNN
	1    8150 3650
	0    1    1    0   
$EndComp
$Comp
L BC840-Breakout-rescue:+3.3V #PWR0103
U 1 1 5CBB7F5C
P 7950 2850
F 0 "#PWR0103" H 7950 2700 50  0001 C CNN
F 1 "+3.3V" H 7950 2990 50  0000 C CNN
F 2 "" H 7950 2850 50  0001 C CNN
F 3 "" H 7950 2850 50  0001 C CNN
	1    7950 2850
	1    0    0    -1  
$EndComp
Wire Wire Line
	7950 2850 7950 2950
Wire Wire Line
	7750 3350 7750 3450
Wire Wire Line
	7950 3350 7950 3450
Wire Wire Line
	8150 3350 8150 3450
$Comp
L ARCSS_Fab:N-MOSFET N3
U 1 1 5CBC2758
P 8800 4250
F 0 "N3" H 8908 4287 60  0000 L CNN
F 1 "N-MOSFET" H 8908 4197 39  0000 L CNN
F 2 "TO_SOT_Packages_SMD:SOT-23" H 8800 4250 60  0001 C CNN
F 3 "" H 8800 4250 60  0001 C CNN
	1    8800 4250
	1    0    0    -1  
$EndComp
$Comp
L BC840-Breakout-rescue:GND #PWR0104
U 1 1 5CBC3ED1
P 8950 4750
F 0 "#PWR0104" H 8950 4500 50  0001 C CNN
F 1 "GND" H 8950 4600 50  0000 C CNN
F 2 "" H 8950 4750 50  0001 C CNN
F 3 "" H 8950 4750 50  0001 C CNN
	1    8950 4750
	1    0    0    -1  
$EndComp
Wire Wire Line
	7750 3850 7750 3950
Wire Wire Line
	7750 3950 7100 3950
Text GLabel 8450 5200 3    60   Input ~ 0
BLUE_LED
Wire Wire Line
	8500 4250 8450 4250
Text GLabel 7600 5200 3    60   Input ~ 0
GREEN_LED
Wire Wire Line
	8450 4250 8450 4600
$Comp
L BC840-Breakout-rescue:Resistor R9
U 1 1 5CBEAE36
P 8700 4600
F 0 "R9" H 8700 4500 60  0000 C CNN
F 1 "10K" H 8700 4600 39  0000 C CNN
F 2 "Resistors_SMD:R_1206_HandSoldering" H 8700 4600 60  0001 C CNN
F 3 "" H 8700 4600 60  0001 C CNN
	1    8700 4600
	-1   0    0    1   
$EndComp
Wire Wire Line
	8800 4450 8800 4500
Wire Wire Line
	8800 4500 8950 4500
Wire Wire Line
	8950 4500 8950 4600
Wire Wire Line
	8900 4600 8950 4600
Connection ~ 8950 4600
Wire Wire Line
	8950 4600 8950 4750
Wire Wire Line
	8500 4600 8450 4600
Connection ~ 8450 4600
$Comp
L ARCSS_Fab:N-MOSFET N2
U 1 1 5CC0327E
P 7950 4250
F 0 "N2" H 8058 4287 60  0000 L CNN
F 1 "N-MOSFET" H 8058 4197 39  0000 L CNN
F 2 "TO_SOT_Packages_SMD:SOT-23" H 7950 4250 60  0001 C CNN
F 3 "" H 7950 4250 60  0001 C CNN
	1    7950 4250
	1    0    0    -1  
$EndComp
$Comp
L BC840-Breakout-rescue:GND #PWR0105
U 1 1 5CC03284
P 8100 4750
F 0 "#PWR0105" H 8100 4500 50  0001 C CNN
F 1 "GND" H 8100 4600 50  0000 C CNN
F 2 "" H 8100 4750 50  0001 C CNN
F 3 "" H 8100 4750 50  0001 C CNN
	1    8100 4750
	1    0    0    -1  
$EndComp
Wire Wire Line
	7650 4250 7600 4250
Wire Wire Line
	7600 4250 7600 4600
$Comp
L BC840-Breakout-rescue:Resistor R5
U 1 1 5CC03294
P 7850 4600
F 0 "R5" H 7850 4500 60  0000 C CNN
F 1 "10K" H 7850 4600 39  0000 C CNN
F 2 "Resistors_SMD:R_1206_HandSoldering" H 7850 4600 60  0001 C CNN
F 3 "" H 7850 4600 60  0001 C CNN
	1    7850 4600
	-1   0    0    1   
$EndComp
Wire Wire Line
	7950 4450 7950 4500
Wire Wire Line
	7950 4500 8100 4500
Wire Wire Line
	8100 4500 8100 4600
Wire Wire Line
	8050 4600 8100 4600
Connection ~ 8100 4600
Wire Wire Line
	8100 4600 8100 4750
Wire Wire Line
	7650 4600 7600 4600
Connection ~ 7600 4600
Wire Wire Line
	8800 3950 8800 4050
Connection ~ 6750 4600
Wire Wire Line
	6800 4600 6750 4600
Wire Wire Line
	7250 4600 7250 4750
Connection ~ 7250 4600
Wire Wire Line
	7200 4600 7250 4600
Wire Wire Line
	7250 4500 7250 4600
Wire Wire Line
	7100 4500 7250 4500
Wire Wire Line
	7100 4450 7100 4500
$Comp
L BC840-Breakout-rescue:Resistor R2
U 1 1 5CC09593
P 7000 4600
F 0 "R2" H 7000 4500 60  0000 C CNN
F 1 "10K" H 7000 4600 39  0000 C CNN
F 2 "Resistors_SMD:R_1206_HandSoldering" H 7000 4600 60  0001 C CNN
F 3 "" H 7000 4600 60  0001 C CNN
	1    7000 4600
	-1   0    0    1   
$EndComp
Wire Wire Line
	6750 4250 6750 4600
Wire Wire Line
	6800 4250 6750 4250
$Comp
L BC840-Breakout-rescue:GND #PWR0106
U 1 1 5CC09584
P 7250 4750
F 0 "#PWR0106" H 7250 4500 50  0001 C CNN
F 1 "GND" H 7250 4600 50  0000 C CNN
F 2 "" H 7250 4750 50  0001 C CNN
F 3 "" H 7250 4750 50  0001 C CNN
	1    7250 4750
	1    0    0    -1  
$EndComp
$Comp
L ARCSS_Fab:N-MOSFET N1
U 1 1 5CC0957E
P 7100 4250
F 0 "N1" H 7208 4287 60  0000 L CNN
F 1 "N-MOSFET" H 7208 4197 39  0000 L CNN
F 2 "TO_SOT_Packages_SMD:SOT-23" H 7100 4250 60  0001 C CNN
F 3 "" H 7100 4250 60  0001 C CNN
	1    7100 4250
	1    0    0    -1  
$EndComp
Text GLabel 6750 5200 3    60   Input ~ 0
RED_LED
Wire Wire Line
	7100 3950 7100 4050
Text GLabel 7000 1950 2    60   Input ~ 0
RED_LED
Text GLabel 7000 2050 2    60   Input ~ 0
GREEN_LED
Text GLabel 7000 2150 2    60   Input ~ 0
BLUE_LED
Wire Wire Line
	7000 2150 6850 2150
Wire Wire Line
	7000 2050 6850 2050
Wire Wire Line
	7000 1950 6850 1950
Text GLabel 5650 4200 2    60   Input ~ 0
LIFO
Text GLabel 5650 4400 2    60   Input ~ 0
CS0
Text GLabel 5650 4300 2    60   Input ~ 0
CLK
Wire Wire Line
	5650 4000 5550 4000
Wire Wire Line
	5650 4100 5550 4100
Wire Wire Line
	5650 4200 5550 4200
Wire Wire Line
	5650 4300 5550 4300
Text GLabel 5650 4100 2    60   Input ~ 0
LOFI
Text GLabel 4050 2050 0    60   Input ~ 0
LIFO
Text GLabel 4050 2150 0    60   Input ~ 0
LOFI
Text GLabel 4050 2250 0    60   Input ~ 0
CS0
Text GLabel 4050 2350 0    60   Input ~ 0
CLK
Wire Wire Line
	6750 4600 6750 5200
Wire Wire Line
	7600 4600 7600 5200
Wire Wire Line
	8450 4600 8450 5200
$Comp
L Connector:Conn_01x01_Male J3
U 1 1 5CC54649
P 3800 4500
F 0 "J3" H 3908 4681 50  0000 C CNN
F 1 "Conn_01x01_Male" H 3908 4590 50  0000 C CNN
F 2 "Mounting_Holes:MountingHole_3.2mm_M3_Pad" H 3800 4500 50  0001 C CNN
F 3 "~" H 3800 4500 50  0001 C CNN
	1    3800 4500
	1    0    0    -1  
$EndComp
$Comp
L Connector:Conn_01x01_Male J4
U 1 1 5CC54ED0
P 3800 4700
F 0 "J4" H 3908 4881 50  0000 C CNN
F 1 "Conn_01x01_Male" H 3908 4790 50  0000 C CNN
F 2 "Mounting_Holes:MountingHole_3.2mm_M3_Pad" H 3800 4700 50  0001 C CNN
F 3 "~" H 3800 4700 50  0001 C CNN
	1    3800 4700
	1    0    0    -1  
$EndComp
$Comp
L Connector:Conn_01x01_Male J5
U 1 1 5CC550A1
P 3800 4900
F 0 "J5" H 3908 5081 50  0000 C CNN
F 1 "Conn_01x01_Male" H 3908 4990 50  0000 C CNN
F 2 "Mounting_Holes:MountingHole_3.2mm_M3_Pad" H 3800 4900 50  0001 C CNN
F 3 "~" H 3800 4900 50  0001 C CNN
	1    3800 4900
	1    0    0    -1  
$EndComp
$Comp
L Connector:Conn_01x01_Male J6
U 1 1 5CC554D5
P 3800 5100
F 0 "J6" H 3908 5281 50  0000 C CNN
F 1 "Conn_01x01_Male" H 3908 5190 50  0000 C CNN
F 2 "Mounting_Holes:MountingHole_3.2mm_M3_Pad" H 3800 5100 50  0001 C CNN
F 3 "~" H 3800 5100 50  0001 C CNN
	1    3800 5100
	1    0    0    -1  
$EndComp
$Comp
L BC840-Breakout-rescue:GND #PWR0107
U 1 1 5CC55629
P 4150 5250
F 0 "#PWR0107" H 4150 5000 50  0001 C CNN
F 1 "GND" H 4150 5100 50  0000 C CNN
F 2 "" H 4150 5250 50  0001 C CNN
F 3 "" H 4150 5250 50  0001 C CNN
	1    4150 5250
	1    0    0    -1  
$EndComp
Wire Wire Line
	4000 5100 4150 5100
Wire Wire Line
	4150 5100 4150 5250
Wire Wire Line
	4150 5100 4150 4900
Wire Wire Line
	4150 4900 4000 4900
Connection ~ 4150 5100
Wire Wire Line
	4150 4900 4150 4700
Wire Wire Line
	4150 4700 4000 4700
Connection ~ 4150 4900
Wire Wire Line
	4150 4700 4150 4500
Wire Wire Line
	4150 4500 4000 4500
Connection ~ 4150 4700
Wire Wire Line
	7950 3850 7950 4050
Wire Wire Line
	8150 3850 8150 3950
Wire Wire Line
	8150 3950 8800 3950
$Comp
L BC840-Breakout-rescue:Resistor R1
U 1 1 5CD38D5A
P 5550 5050
F 0 "R1" H 5550 4950 60  0000 C CNN
F 1 "10K" H 5550 5050 39  0000 C CNN
F 2 "Resistors_SMD:R_1206_HandSoldering" H 5550 5050 60  0001 C CNN
F 3 "" H 5550 5050 60  0001 C CNN
	1    5550 5050
	-1   0    0    1   
$EndComp
$Comp
L BC840-Breakout-rescue:GND #PWR010
U 1 1 5CD39000
P 5850 5150
F 0 "#PWR010" H 5850 4900 50  0001 C CNN
F 1 "GND" H 5850 5000 50  0000 C CNN
F 2 "" H 5850 5150 50  0001 C CNN
F 3 "" H 5850 5150 50  0001 C CNN
	1    5850 5150
	1    0    0    -1  
$EndComp
Wire Wire Line
	5750 5050 5850 5050
Wire Wire Line
	5850 5050 5850 5150
$Comp
L BC840-Breakout-rescue:GND #PWR06
U 1 1 5CD3CA9B
P 5250 5150
F 0 "#PWR06" H 5250 4900 50  0001 C CNN
F 1 "GND" H 5250 5000 50  0000 C CNN
F 2 "" H 5250 5150 50  0001 C CNN
F 3 "" H 5250 5150 50  0001 C CNN
	1    5250 5150
	1    0    0    -1  
$EndComp
Wire Wire Line
	5350 5050 5250 5050
Wire Wire Line
	5250 5050 5250 5150
Wire Wire Line
	5550 4400 5650 4400
Wire Wire Line
	5550 3900 5700 3900
$EndSCHEMATC
