(module SWD_2x05_HANDSOLDER (layer F.Cu) (tedit 5CC0ABF4)
  (fp_text reference REF** (at 3.75 5) (layer F.SilkS)
    (effects (font (size 1 1) (thickness 0.15)))
  )
  (fp_text value SWD_2x05_HANDSOLDER (at 0.5 -5.25) (layer F.Fab)
    (effects (font (size 1 1) (thickness 0.15)))
  )
  (fp_line (start -2.92 -2.54) (end 2.92 -2.54) (layer F.SilkS) (width 0.15))
  (fp_line (start -2.92 2.54) (end 2.92 2.54) (layer F.SilkS) (width 0.15))
  (fp_line (start 2.92 -2.54) (end 2.92 2.54) (layer F.SilkS) (width 0.15))
  (fp_line (start -2.92 2.54) (end -2.92 -2.54) (layer F.SilkS) (width 0.15))
  (pad 8 smd rect (at 2.2 1.27) (size 3 0.8) (layers F.Cu F.Paste F.Mask))
  (pad 10 smd rect (at 2.2 2.54) (size 3 0.8) (layers F.Cu F.Paste F.Mask))
  (pad 4 smd rect (at 2.2 -1.27) (size 3 0.8) (layers F.Cu F.Paste F.Mask))
  (pad 2 smd rect (at 2.2 -2.54) (size 3 0.8) (layers F.Cu F.Paste F.Mask))
  (pad 6 smd rect (at 2.2 0) (size 3 0.8) (layers F.Cu F.Paste F.Mask))
  (pad 7 smd rect (at -2.2 1.27) (size 3 0.8) (layers F.Cu F.Paste F.Mask))
  (pad 1 smd rect (at -2.2 -2.54) (size 3 0.8) (layers F.Cu F.Paste F.Mask))
  (pad 5 smd rect (at -2.2 0) (size 3 0.8) (layers F.Cu F.Paste F.Mask))
  (pad 9 smd rect (at -2.2 2.54) (size 3 0.8) (layers F.Cu F.Paste F.Mask))
  (pad 3 smd rect (at -2.2 -1.27) (size 3 0.8) (layers F.Cu F.Paste F.Mask))
)
