(module SWITCH (layer F.Cu) (tedit 5B4FE713)
  (fp_text reference REF** (at 0 3.81) (layer F.SilkS)
    (effects (font (size 1 1) (thickness 0.15)))
  )
  (fp_text value PUSH_SWITCH (at 0 -3.81) (layer F.Fab)
    (effects (font (size 1 1) (thickness 0.15)))
  )
  (pad 1 smd rect (at 3.375 2 180) (size 2.75 1.4) (layers F.Cu F.Paste F.Mask))
  (pad 2 smd rect (at -3.375 2 180) (size 2.75 1.4) (layers F.Cu F.Paste F.Mask))
  (pad 3 smd rect (at 3.375 -2 180) (size 2.75 1.4) (layers F.Cu F.Paste F.Mask))
  (pad 4 smd rect (at -3.375 -2 180) (size 2.75 1.4) (layers F.Cu F.Paste F.Mask))
)
