(module UMFT234XF (layer F.Cu) (tedit 5B4FCBE8)
  (fp_text reference REF** (at 0 5.08) (layer F.SilkS)
    (effects (font (size 1 1) (thickness 0.15)))
  )
  (fp_text value UMFT234XF (at 0 -2.54) (layer F.Fab)
    (effects (font (size 1 1) (thickness 0.15)))
  )
  (fp_line (start 3.81 -10.16) (end 3.81 -14.65) (layer F.SilkS) (width 0.15))
  (fp_line (start -3.81 -10.16) (end 3.81 -10.16) (layer F.SilkS) (width 0.15))
  (fp_line (start -3.81 -14.65) (end -3.81 -10.16) (layer F.SilkS) (width 0.15))
  (fp_text user USB (at 0 -12.7) (layer F.SilkS)
    (effects (font (size 2 2) (thickness 0.3)))
  )
  (fp_line (start -6.35 6.35) (end -6.35 -14.65) (layer F.SilkS) (width 0.15))
  (fp_line (start -6.35 6.35) (end 6.35 6.35) (layer F.SilkS) (width 0.15))
  (fp_line (start 6.35 6.35) (end 6.35 -14.65) (layer F.SilkS) (width 0.15))
  (fp_line (start -6.35 -14.65) (end 6.35 -14.65) (layer F.SilkS) (width 0.15))
  (pad 1 smd rect (at -6.35 -5.08) (size 2.54 1.27) (layers F.Cu F.Paste F.Mask))
  (pad 2 smd rect (at -6.35 -2.54) (size 2.54 1.27) (layers F.Cu F.Paste F.Mask))
  (pad 3 smd rect (at -6.35 0) (size 2.54 1.27) (layers F.Cu F.Paste F.Mask))
  (pad 4 smd rect (at -6.35 2.54) (size 2.54 1.27) (layers F.Cu F.Paste F.Mask))
  (pad 5 smd rect (at -6.35 5.08) (size 2.54 1.27) (layers F.Cu F.Paste F.Mask))
  (pad 7 smd rect (at 6.35 2.54) (size 2.54 1.27) (layers F.Cu F.Paste F.Mask))
  (pad 10 smd rect (at 6.35 -5.08) (size 2.54 1.27) (layers F.Cu F.Paste F.Mask))
  (pad 9 smd rect (at 6.35 -2.54) (size 2.54 1.27) (layers F.Cu F.Paste F.Mask))
  (pad 8 smd rect (at 6.35 0) (size 2.54 1.27) (layers F.Cu F.Paste F.Mask))
  (pad 6 smd rect (at 6.35 5.08) (size 2.54 1.27) (layers F.Cu F.Paste F.Mask))
)
