EESchema Schematic File Version 2
LIBS:A4953-Breakout-rescue
LIBS:ARCSS_Fab
LIBS:power
LIBS:device
LIBS:switches
LIBS:relays
LIBS:transistors
LIBS:conn
LIBS:linear
LIBS:regul
LIBS:74xx
LIBS:cmos4000
LIBS:adc-dac
LIBS:memory
LIBS:xilinx
LIBS:microcontrollers
LIBS:dsp
LIBS:microchip
LIBS:analog_switches
LIBS:motorola
LIBS:texas
LIBS:intel
LIBS:audio
LIBS:interface
LIBS:digital-audio
LIBS:philips
LIBS:display
LIBS:cypress
LIBS:siliconi
LIBS:opto
LIBS:atmel
LIBS:contrib
LIBS:valves
LIBS:A4953-Breakout-cache
EELAYER 25 0
EELAYER END
$Descr A4 11693 8268
encoding utf-8
Sheet 1 1
Title ""
Date ""
Rev ""
Comp ""
Comment1 ""
Comment2 ""
Comment3 ""
Comment4 ""
$EndDescr
$Comp
L A4953 A1
U 1 1 5ABD1E42
P 4400 2400
F 0 "A1" H 4650 1850 60  0000 C CNN
F 1 "A4953" H 4450 3200 60  0000 C CNN
F 2 "SMD_Packages:SOIC-8-N" H 4425 2600 60  0001 C CNN
F 3 "" H 4425 2600 60  0001 C CNN
	1    4400 2400
	1    0    0    -1  
$EndComp
$Comp
L +3.3V #PWR01
U 1 1 5ABD1FA6
P 3900 1800
F 0 "#PWR01" H 3900 1650 50  0001 C CNN
F 1 "+3.3V" H 3900 1940 50  0000 C CNN
F 2 "" H 3900 1800 50  0001 C CNN
F 3 "" H 3900 1800 50  0001 C CNN
	1    3900 1800
	1    0    0    -1  
$EndComp
$Comp
L +12V #PWR02
U 1 1 5ABD1FC2
P 3900 2500
F 0 "#PWR02" H 3900 2350 50  0001 C CNN
F 1 "+12V" H 3900 2640 50  0000 C CNN
F 2 "" H 3900 2500 50  0001 C CNN
F 3 "" H 3900 2500 50  0001 C CNN
	1    3900 2500
	1    0    0    -1  
$EndComp
$Comp
L GND #PWR03
U 1 1 5ABD1FDB
P 3900 3100
F 0 "#PWR03" H 3900 2850 50  0001 C CNN
F 1 "GND" H 3900 2950 50  0000 C CNN
F 2 "" H 3900 3100 50  0001 C CNN
F 3 "" H 3900 3100 50  0001 C CNN
	1    3900 3100
	1    0    0    -1  
$EndComp
Wire Wire Line
	4000 3000 3900 3000
Wire Wire Line
	3900 2900 3900 3100
Wire Wire Line
	3500 2900 4000 2900
Connection ~ 3900 3000
Wire Wire Line
	3500 2600 4000 2600
Wire Wire Line
	3900 2600 3900 2500
Wire Wire Line
	3500 1900 4000 1900
Wire Wire Line
	3900 1900 3900 1800
$Comp
L Resistor R1
U 1 1 5ABD2CD1
P 6200 2050
F 0 "R1" H 6200 1950 60  0000 C CNN
F 1 "Resistor" H 6200 2050 39  0000 C CNN
F 2 "Resistors_SMD:R_1206" H 6200 2050 60  0001 C CNN
F 3 "" H 6200 2050 60  0001 C CNN
	1    6200 2050
	0    1    1    0   
$EndComp
$Comp
L Polarized_Capacitor C4
U 1 1 5ABD2D2A
P 3750 2750
F 0 "C4" H 3850 2650 60  0000 C CNN
F 1 "10uF" H 3750 2750 39  0000 C CNN
F 2 "Capacitors_THT:CP_Radial_D8.0mm_P5.00mm" H 3750 2750 60  0001 C CNN
F 3 "" H 3750 2750 60  0001 C CNN
	1    3750 2750
	1    0    0    -1  
$EndComp
$Comp
L LED L1
U 1 1 5ABD2F74
P 6200 1650
F 0 "L1" H 6200 1550 60  0000 C CNN
F 1 "LED" H 6200 1760 39  0000 C CNN
F 2 "LEDs:LED_1206" H 6200 1650 60  0001 C CNN
F 3 "" H 6200 1650 60  0001 C CNN
	1    6200 1650
	0    1    1    0   
$EndComp
Wire Wire Line
	6200 1750 6200 1850
$Comp
L GND #PWR04
U 1 1 5ABD2FF5
P 6450 2350
F 0 "#PWR04" H 6450 2100 50  0001 C CNN
F 1 "GND" H 6450 2200 50  0000 C CNN
F 2 "" H 6450 2350 50  0001 C CNN
F 3 "" H 6450 2350 50  0001 C CNN
	1    6450 2350
	1    0    0    -1  
$EndComp
Wire Wire Line
	6200 2250 6200 2300
Wire Wire Line
	6200 2300 6700 2300
Wire Wire Line
	6450 2300 6450 2350
$Comp
L Resistor R2
U 1 1 5ABD3163
P 6700 2050
F 0 "R2" H 6700 1950 60  0000 C CNN
F 1 "Resistor" H 6700 2050 39  0000 C CNN
F 2 "Resistors_SMD:R_1206" H 6700 2050 60  0001 C CNN
F 3 "" H 6700 2050 60  0001 C CNN
	1    6700 2050
	0    1    1    0   
$EndComp
$Comp
L LED L2
U 1 1 5ABD3169
P 6700 1650
F 0 "L2" H 6700 1550 60  0000 C CNN
F 1 "LED" H 6700 1760 39  0000 C CNN
F 2 "LEDs:LED_1206" H 6700 1650 60  0001 C CNN
F 3 "" H 6700 1650 60  0001 C CNN
	1    6700 1650
	0    1    1    0   
$EndComp
Wire Wire Line
	6700 1750 6700 1850
Wire Wire Line
	6700 2300 6700 2250
Connection ~ 6450 2300
Text GLabel 6200 1450 1    60   Input ~ 0
IN1
Text GLabel 6700 1450 1    60   Input ~ 0
IN2
Wire Wire Line
	6700 1450 6700 1550
Wire Wire Line
	6200 1450 6200 1550
Text GLabel 5000 1900 2    60   Input ~ 0
IN1
Text GLabel 5000 2000 2    60   Input ~ 0
IN2
Wire Wire Line
	4900 1900 5000 1900
Wire Wire Line
	4900 2000 5000 2000
$Comp
L GND #PWR05
U 1 1 5ABD361B
P 5000 2400
F 0 "#PWR05" H 5000 2150 50  0001 C CNN
F 1 "GND" H 5000 2250 50  0000 C CNN
F 2 "" H 5000 2400 50  0001 C CNN
F 3 "" H 5000 2400 50  0001 C CNN
	1    5000 2400
	1    0    0    -1  
$EndComp
Wire Wire Line
	4900 2300 5000 2300
Wire Wire Line
	5000 2300 5000 2400
$Comp
L Mabuchi_FK_260SA_14280 M1
U 1 1 5ABD36BB
P 5300 2900
F 0 "M1" H 5500 2700 60  0000 C CNN
F 1 "Mabuchi_FK_260SA_14280" V 5100 2450 39  0000 C CNN
F 2 "TerminalBlocks_Phoenix:TerminalBlock_Phoenix_PT-3.5mm_2pol" H 5300 2900 60  0001 C CNN
F 3 "" H 5300 2900 60  0001 C CNN
	1    5300 2900
	0    1    1    0   
$EndComp
Wire Wire Line
	4900 2700 5000 2700
Wire Wire Line
	5000 2700 5000 3200
Wire Wire Line
	5300 3150 5300 3200
Wire Wire Line
	5300 3200 5000 3200
Connection ~ 5000 3100
Wire Wire Line
	5300 2650 5300 2600
Connection ~ 5300 2600
Wire Wire Line
	5300 2600 4900 2600
$Comp
L Capacitor C2
U 1 1 5ABD3DC0
P 3500 2750
F 0 "C2" H 3600 2650 60  0000 C CNN
F 1 "1uF" H 3500 2750 39  0000 C CNN
F 2 "Capacitors_SMD:C_1206" H 3500 2750 60  0001 C CNN
F 3 "" H 3500 2750 60  0001 C CNN
	1    3500 2750
	1    0    0    -1  
$EndComp
Wire Wire Line
	3750 2900 3750 2850
Connection ~ 3900 2900
Wire Wire Line
	3500 2900 3500 2850
Connection ~ 3750 2900
Wire Wire Line
	3750 2600 3750 2650
Connection ~ 3900 2600
Wire Wire Line
	3500 2600 3500 2650
Connection ~ 3750 2600
$Comp
L Capacitor C3
U 1 1 5ABD40AF
P 3700 2050
F 0 "C3" H 3800 1950 60  0000 C CNN
F 1 "1uF" H 3700 2050 39  0000 C CNN
F 2 "Capacitors_SMD:C_1206" H 3700 2050 60  0001 C CNN
F 3 "" H 3700 2050 60  0001 C CNN
	1    3700 2050
	1    0    0    -1  
$EndComp
$Comp
L GND #PWR06
U 1 1 5ABD4139
P 3700 2250
F 0 "#PWR06" H 3700 2000 50  0001 C CNN
F 1 "GND" H 3700 2100 50  0000 C CNN
F 2 "" H 3700 2250 50  0001 C CNN
F 3 "" H 3700 2250 50  0001 C CNN
	1    3700 2250
	1    0    0    -1  
$EndComp
Wire Wire Line
	3700 2150 3700 2250
Wire Wire Line
	3700 1900 3700 1950
Connection ~ 3900 1900
$Comp
L Capacitor C1
U 1 1 5ABD4200
P 3500 2050
F 0 "C1" H 3600 1950 60  0000 C CNN
F 1 "0.1uF" H 3500 2050 39  0000 C CNN
F 2 "Capacitors_SMD:C_1206" H 3500 2050 60  0001 C CNN
F 3 "" H 3500 2050 60  0001 C CNN
	1    3500 2050
	1    0    0    -1  
$EndComp
Wire Wire Line
	3700 2200 3500 2200
Wire Wire Line
	3500 2200 3500 2150
Connection ~ 3700 2200
Wire Wire Line
	3500 1900 3500 1950
Connection ~ 3700 1900
$Comp
L Conn_01x04 J1
U 1 1 5ABD4484
P 5600 950
F 0 "J1" H 5600 1150 50  0000 C CNN
F 1 "Conn_01x04" H 5600 650 50  0000 C CNN
F 2 "Pin_Headers:Pin_Header_Straight_1x04_Pitch2.54mm" H 5600 950 50  0001 C CNN
F 3 "" H 5600 950 50  0001 C CNN
	1    5600 950 
	1    0    0    -1  
$EndComp
Text GLabel 5300 1050 0    60   Input ~ 0
IN2
Text GLabel 5300 950  0    60   Input ~ 0
IN1
Wire Wire Line
	5400 950  5300 950 
Wire Wire Line
	5400 1050 5300 1050
$Comp
L +3.3V #PWR07
U 1 1 5ABD464A
P 5300 750
F 0 "#PWR07" H 5300 600 50  0001 C CNN
F 1 "+3.3V" H 5300 890 50  0000 C CNN
F 2 "" H 5300 750 50  0001 C CNN
F 3 "" H 5300 750 50  0001 C CNN
	1    5300 750 
	1    0    0    -1  
$EndComp
$Comp
L GND #PWR08
U 1 1 5ABD4676
P 5300 1250
F 0 "#PWR08" H 5300 1000 50  0001 C CNN
F 1 "GND" H 5300 1100 50  0000 C CNN
F 2 "" H 5300 1250 50  0001 C CNN
F 3 "" H 5300 1250 50  0001 C CNN
	1    5300 1250
	1    0    0    -1  
$EndComp
Wire Wire Line
	5400 1150 5300 1150
Wire Wire Line
	5300 1150 5300 1250
Wire Wire Line
	5400 850  5300 850 
Wire Wire Line
	5300 850  5300 750 
$Comp
L CONN_01X02 J2
U 1 1 5ABD65F1
P 3900 1000
F 0 "J2" H 3900 1100 50  0000 C CNN
F 1 "Conn_01x02" H 3900 800 50  0000 C CNN
F 2 "TerminalBlocks_Phoenix:TerminalBlock_Phoenix_PT-3.5mm_2pol" H 3900 1000 50  0001 C CNN
F 3 "" H 3900 1000 50  0001 C CNN
	1    3900 1000
	1    0    0    -1  
$EndComp
$Comp
L +12V #PWR09
U 1 1 5ABD683C
P 3600 850
F 0 "#PWR09" H 3600 700 50  0001 C CNN
F 1 "+12V" H 3600 990 50  0000 C CNN
F 2 "" H 3600 850 50  0001 C CNN
F 3 "" H 3600 850 50  0001 C CNN
	1    3600 850 
	1    0    0    -1  
$EndComp
$Comp
L GND #PWR010
U 1 1 5ABD68D7
P 3600 1150
F 0 "#PWR010" H 3600 900 50  0001 C CNN
F 1 "GND" H 3600 1000 50  0000 C CNN
F 2 "" H 3600 1150 50  0001 C CNN
F 3 "" H 3600 1150 50  0001 C CNN
	1    3600 1150
	1    0    0    -1  
$EndComp
Wire Wire Line
	3700 1050 3600 1050
Wire Wire Line
	3600 1050 3600 1150
Wire Wire Line
	3700 950  3600 950 
Wire Wire Line
	3600 950  3600 850 
$EndSCHEMATC
