EESchema Schematic File Version 2
LIBS:power
LIBS:device
LIBS:switches
LIBS:relays
LIBS:motors
LIBS:transistors
LIBS:conn
LIBS:linear
LIBS:regul
LIBS:74xx
LIBS:cmos4000
LIBS:adc-dac
LIBS:memory
LIBS:xilinx
LIBS:microcontrollers
LIBS:dsp
LIBS:microchip
LIBS:analog_switches
LIBS:motorola
LIBS:texas
LIBS:intel
LIBS:audio
LIBS:interface
LIBS:digital-audio
LIBS:philips
LIBS:display
LIBS:cypress
LIBS:siliconi
LIBS:opto
LIBS:atmel
LIBS:contrib
LIBS:valves
LIBS:ARCSS_Breakouts
LIBS:ARCSS_Electromechanical
LIBS:ARCSS_Fab
LIBS:ARCSS_Sensors
EELAYER 25 0
EELAYER END
$Descr A4 11693 8268
encoding utf-8
Sheet 1 1
Title ""
Date ""
Rev ""
Comp ""
Comment1 ""
Comment2 ""
Comment3 ""
Comment4 ""
$EndDescr
$Comp
L SongleRelay S1
U 1 1 5B219D56
P 4950 2200
F 0 "S1" H 4925 2000 60  0000 C CNN
F 1 "SongleRelay" H 4950 2450 60  0000 C CNN
F 2 "Relays_THT:Relay_SPDT_SANYOU_SRD_Series_Form_C" H 5000 2200 60  0001 C CNN
F 3 "" H 5000 2200 60  0001 C CNN
	1    4950 2200
	1    0    0    -1  
$EndComp
$Comp
L Conn_01x03 J1
U 1 1 5B219DD3
P 3100 2700
F 0 "J1" H 3100 2900 50  0000 C CNN
F 1 "Conn_01x03" H 3100 2500 50  0000 C CNN
F 2 "Pin_Headers:Pin_Header_Straight_1x03_Pitch2.54mm" H 3100 2700 50  0001 C CNN
F 3 "" H 3100 2700 50  0001 C CNN
	1    3100 2700
	-1   0    0    -1  
$EndComp
$Comp
L N-MOSFET N1
U 1 1 5B219E35
P 4450 2700
F 0 "N1" H 4250 2590 60  0000 C CNN
F 1 "N-MOSFET" H 4220 2820 39  0000 C CNN
F 2 "TO_SOT_Packages_SMD:SOT-23" H 4450 2700 60  0001 C CNN
F 3 "" H 4450 2700 60  0001 C CNN
	1    4450 2700
	1    0    0    -1  
$EndComp
$Comp
L Resistor R2
U 1 1 5B219E90
P 3750 2700
F 0 "R2" H 3750 2600 60  0000 C CNN
F 1 "Resistor" H 3750 2700 39  0000 C CNN
F 2 "Resistors_SMD:R_1206_HandSoldering" H 3750 2700 60  0001 C CNN
F 3 "" H 3750 2700 60  0001 C CNN
	1    3750 2700
	1    0    0    -1  
$EndComp
$Comp
L LED D1
U 1 1 5B219F1D
P 3650 2200
F 0 "D1" H 3650 2300 50  0000 C CNN
F 1 "LED" H 3650 2100 50  0000 C CNN
F 2 "LEDs:LED_1206_HandSoldering" H 3650 2200 50  0001 C CNN
F 3 "" H 3650 2200 50  0001 C CNN
	1    3650 2200
	0    -1   -1   0   
$EndComp
$Comp
L Resistor R1
U 1 1 5B219F7E
P 3650 1750
F 0 "R1" H 3650 1650 60  0000 C CNN
F 1 "Resistor" H 3650 1750 39  0000 C CNN
F 2 "Resistors_SMD:R_1206_HandSoldering" H 3650 1750 60  0001 C CNN
F 3 "" H 3650 1750 60  0001 C CNN
	1    3650 1750
	0    1    1    0   
$EndComp
$Comp
L Resistor R3
U 1 1 5B21A025
P 4050 1750
F 0 "R3" H 4050 1650 60  0000 C CNN
F 1 "Resistor" H 4050 1750 39  0000 C CNN
F 2 "Resistors_SMD:R_1206_HandSoldering" H 4050 1750 60  0001 C CNN
F 3 "" H 4050 1750 60  0001 C CNN
	1    4050 1750
	0    1    1    0   
$EndComp
$Comp
L LED D2
U 1 1 5B21A072
P 4050 2200
F 0 "D2" H 4050 2300 50  0000 C CNN
F 1 "LED" H 4050 2100 50  0000 C CNN
F 2 "LEDs:LED_1206_HandSoldering" H 4050 2200 50  0001 C CNN
F 3 "" H 4050 2200 50  0001 C CNN
	1    4050 2200
	0    -1   -1   0   
$EndComp
$Comp
L +5V #PWR01
U 1 1 5B21A126
P 4250 1400
F 0 "#PWR01" H 4250 1250 50  0001 C CNN
F 1 "+5V" H 4250 1540 50  0000 C CNN
F 2 "" H 4250 1400 50  0001 C CNN
F 3 "" H 4250 1400 50  0001 C CNN
	1    4250 1400
	1    0    0    -1  
$EndComp
$Comp
L GND #PWR02
U 1 1 5B21A18A
P 4050 3300
F 0 "#PWR02" H 4050 3050 50  0001 C CNN
F 1 "GND" H 4050 3150 50  0000 C CNN
F 2 "" H 4050 3300 50  0001 C CNN
F 3 "" H 4050 3300 50  0001 C CNN
	1    4050 3300
	1    0    0    -1  
$EndComp
$Comp
L D D3
U 1 1 5B21A1B6
P 4350 2200
F 0 "D3" H 4350 2300 50  0000 C CNN
F 1 "D" H 4350 2100 50  0000 C CNN
F 2 "Diodes_SMD:D_SOD-123" H 4350 2200 50  0001 C CNN
F 3 "" H 4350 2200 50  0001 C CNN
	1    4350 2200
	0    1    1    0   
$EndComp
Wire Wire Line
	4750 2100 4650 2100
Wire Wire Line
	4650 2100 4650 2000
Wire Wire Line
	4650 2000 4350 2000
Wire Wire Line
	4350 1500 4350 2050
Wire Wire Line
	4750 2300 4650 2300
Wire Wire Line
	4650 2300 4650 2400
Wire Wire Line
	4650 2400 4050 2400
Wire Wire Line
	4350 2400 4350 2350
Wire Wire Line
	4250 1400 4250 1500
Wire Wire Line
	3650 1500 4350 1500
Wire Wire Line
	4050 1500 4050 1550
Connection ~ 4350 2000
Connection ~ 4250 1500
Wire Wire Line
	4050 1950 4050 2050
$Comp
L Resistor R4
U 1 1 5B21A500
P 4050 3000
F 0 "R4" H 4050 2900 60  0000 C CNN
F 1 "Resistor" H 4050 3000 39  0000 C CNN
F 2 "Resistors_SMD:R_1206_HandSoldering" H 4050 3000 60  0001 C CNN
F 3 "" H 4050 3000 60  0001 C CNN
	1    4050 3000
	0    1    1    0   
$EndComp
Wire Wire Line
	3950 2700 4150 2700
Wire Wire Line
	4050 2700 4050 2800
Connection ~ 4050 2700
Wire Wire Line
	4450 2500 4450 2400
Connection ~ 4450 2400
Wire Wire Line
	4050 2400 4050 2350
Connection ~ 4350 2400
Wire Wire Line
	3650 1500 3650 1550
Connection ~ 4050 1500
$Comp
L GND #PWR03
U 1 1 5B21A62D
P 3650 2450
F 0 "#PWR03" H 3650 2200 50  0001 C CNN
F 1 "GND" H 3650 2300 50  0000 C CNN
F 2 "" H 3650 2450 50  0001 C CNN
F 3 "" H 3650 2450 50  0001 C CNN
	1    3650 2450
	1    0    0    -1  
$EndComp
Wire Wire Line
	3650 2350 3650 2450
Wire Wire Line
	3650 1950 3650 2050
Wire Wire Line
	4050 3300 4050 3200
Wire Wire Line
	4050 3250 4450 3250
Wire Wire Line
	4450 3250 4450 2900
Connection ~ 4050 3250
Wire Wire Line
	3550 2700 3300 2700
$Comp
L GND #PWR04
U 1 1 5B21A8CD
P 3400 2900
F 0 "#PWR04" H 3400 2650 50  0001 C CNN
F 1 "GND" H 3400 2750 50  0000 C CNN
F 2 "" H 3400 2900 50  0001 C CNN
F 3 "" H 3400 2900 50  0001 C CNN
	1    3400 2900
	1    0    0    -1  
$EndComp
$Comp
L +5V #PWR05
U 1 1 5B21A8F6
P 3400 2500
F 0 "#PWR05" H 3400 2350 50  0001 C CNN
F 1 "+5V" H 3400 2640 50  0000 C CNN
F 2 "" H 3400 2500 50  0001 C CNN
F 3 "" H 3400 2500 50  0001 C CNN
	1    3400 2500
	1    0    0    -1  
$EndComp
Wire Wire Line
	3300 2600 3400 2600
Wire Wire Line
	3400 2600 3400 2500
Wire Wire Line
	3300 2800 3400 2800
Wire Wire Line
	3400 2800 3400 2900
$Comp
L Conn_01x03 J2
U 1 1 5B21AC38
P 5450 2200
F 0 "J2" H 5450 2400 50  0000 C CNN
F 1 "Conn_01x03" H 5450 2000 50  0000 C CNN
F 2 "TerminalBlocks_Phoenix:TerminalBlock_Phoenix_PT-3.5mm_3pol" H 5450 2200 50  0001 C CNN
F 3 "" H 5450 2200 50  0001 C CNN
	1    5450 2200
	1    0    0    1   
$EndComp
Wire Wire Line
	5150 2100 5250 2100
Wire Wire Line
	5150 2200 5250 2200
Wire Wire Line
	5150 2300 5250 2300
$Comp
L Resistor R?
U 1 1 5B21AE1F
P 3100 1750
F 0 "R?" H 3100 1650 60  0000 C CNN
F 1 "Resistor" H 3100 1750 39  0000 C CNN
F 2 "Resistors_SMD:R_1206_HandSoldering" H 3100 1750 60  0001 C CNN
F 3 "" H 3100 1750 60  0001 C CNN
	1    3100 1750
	0    1    1    0   
$EndComp
$Comp
L GND #PWR?
U 1 1 5B21AE67
P 3100 2050
F 0 "#PWR?" H 3100 1800 50  0001 C CNN
F 1 "GND" H 3100 1900 50  0000 C CNN
F 2 "" H 3100 2050 50  0001 C CNN
F 3 "" H 3100 2050 50  0001 C CNN
	1    3100 2050
	1    0    0    -1  
$EndComp
$Comp
L GND #PWR?
U 1 1 5B21AE96
P 3100 1450
F 0 "#PWR?" H 3100 1200 50  0001 C CNN
F 1 "GND" H 3100 1300 50  0000 C CNN
F 2 "" H 3100 1450 50  0001 C CNN
F 3 "" H 3100 1450 50  0001 C CNN
	1    3100 1450
	-1   0    0    1   
$EndComp
Wire Wire Line
	3100 1450 3100 1550
Wire Wire Line
	3100 1950 3100 2050
$EndSCHEMATC
