(export (version D)
  (design
    (source C:\Users\dcellucc\git\ames-spaceshop-kicad\boards\Relay-Breakout\relay-breakout.sch)
    (date "6/13/2018 4:00:48 PM")
    (tool "Eeschema 4.0.7")
    (sheet (number 1) (name /) (tstamps /)
      (title_block
        (title)
        (company)
        (rev)
        (date)
        (source relay-breakout.sch)
        (comment (number 1) (value ""))
        (comment (number 2) (value ""))
        (comment (number 3) (value ""))
        (comment (number 4) (value "")))))
  (components
    (comp (ref S1)
      (value SongleRelay)
      (footprint Relays_THT:Relay_SPDT_SANYOU_SRD_Series_Form_C)
      (libsource (lib ARCSS_Electromechanical) (part SongleRelay))
      (sheetpath (names /) (tstamps /))
      (tstamp 5B219D56))
    (comp (ref J1)
      (value Conn_01x03)
      (footprint Pin_Headers:Pin_Header_Straight_1x03_Pitch2.54mm)
      (libsource (lib conn) (part Conn_01x03))
      (sheetpath (names /) (tstamps /))
      (tstamp 5B219DD3))
    (comp (ref N1)
      (value N-MOSFET)
      (footprint TO_SOT_Packages_SMD:SOT-23)
      (libsource (lib ARCSS_Fab) (part N-MOSFET))
      (sheetpath (names /) (tstamps /))
      (tstamp 5B219E35))
    (comp (ref R2)
      (value Resistor)
      (footprint Resistors_SMD:R_1206_HandSoldering)
      (libsource (lib ARCSS_Fab) (part Resistor))
      (sheetpath (names /) (tstamps /))
      (tstamp 5B219E90))
    (comp (ref D1)
      (value LED)
      (footprint LEDs:LED_1206_HandSoldering)
      (libsource (lib device) (part LED))
      (sheetpath (names /) (tstamps /))
      (tstamp 5B219F1D))
    (comp (ref R1)
      (value Resistor)
      (footprint Resistors_SMD:R_1206_HandSoldering)
      (libsource (lib ARCSS_Fab) (part Resistor))
      (sheetpath (names /) (tstamps /))
      (tstamp 5B219F7E))
    (comp (ref R3)
      (value Resistor)
      (footprint Resistors_SMD:R_1206_HandSoldering)
      (libsource (lib ARCSS_Fab) (part Resistor))
      (sheetpath (names /) (tstamps /))
      (tstamp 5B21A025))
    (comp (ref D2)
      (value LED)
      (footprint LEDs:LED_1206_HandSoldering)
      (libsource (lib device) (part LED))
      (sheetpath (names /) (tstamps /))
      (tstamp 5B21A072))
    (comp (ref D3)
      (value D)
      (footprint Diodes_SMD:D_SOD-123)
      (libsource (lib device) (part D))
      (sheetpath (names /) (tstamps /))
      (tstamp 5B21A1B6))
    (comp (ref R4)
      (value Resistor)
      (footprint Resistors_SMD:R_1206_HandSoldering)
      (libsource (lib ARCSS_Fab) (part Resistor))
      (sheetpath (names /) (tstamps /))
      (tstamp 5B21A500))
    (comp (ref J2)
      (value Conn_01x03)
      (footprint TerminalBlocks_Phoenix:TerminalBlock_Phoenix_PT-3.5mm_3pol)
      (libsource (lib conn) (part Conn_01x03))
      (sheetpath (names /) (tstamps /))
      (tstamp 5B21AC38))
    (comp (ref R5)
      (value Resistor)
      (footprint Resistors_SMD:R_1206_HandSoldering)
      (libsource (lib ARCSS_Fab) (part Resistor))
      (sheetpath (names /) (tstamps /))
      (tstamp 5B21AE1F)))
  (libparts
    (libpart (lib conn) (part Conn_01x03)
      (description "Generic connector, single row, 01x03")
      (docs ~)
      (footprints
        (fp Connector*:*_??x*mm*)
        (fp Connector*:*1x??x*mm*)
        (fp Pin?Header?Straight?1X*)
        (fp Pin?Header?Angled?1X*)
        (fp Socket?Strip?Straight?1X*)
        (fp Socket?Strip?Angled?1X*))
      (fields
        (field (name Reference) J)
        (field (name Value) Conn_01x03))
      (pins
        (pin (num 1) (name Pin_1) (type passive))
        (pin (num 2) (name Pin_2) (type passive))
        (pin (num 3) (name Pin_3) (type passive))))
    (libpart (lib device) (part D)
      (description Diode)
      (footprints
        (fp TO-???*)
        (fp *SingleDiode)
        (fp *_Diode_*)
        (fp *SingleDiode*)
        (fp D_*))
      (fields
        (field (name Reference) D)
        (field (name Value) D))
      (pins
        (pin (num 1) (name K) (type passive))
        (pin (num 2) (name A) (type passive))))
    (libpart (lib device) (part LED)
      (description "LED generic")
      (footprints
        (fp LED*))
      (fields
        (field (name Reference) D)
        (field (name Value) LED))
      (pins
        (pin (num 1) (name K) (type passive))
        (pin (num 2) (name A) (type passive))))
    (libpart (lib ARCSS_Fab) (part N-MOSFET)
      (fields
        (field (name Reference) N)
        (field (name Value) N-MOSFET))
      (pins
        (pin (num 1) (name G) (type input))
        (pin (num 2) (name S) (type input))
        (pin (num 3) (name D) (type input))))
    (libpart (lib ARCSS_Fab) (part Resistor)
      (fields
        (field (name Reference) R)
        (field (name Value) Resistor))
      (pins
        (pin (num 1) (name ~) (type input))
        (pin (num 2) (name ~) (type input))))
    (libpart (lib ARCSS_Electromechanical) (part SongleRelay)
      (fields
        (field (name Reference) S)
        (field (name Value) SongleRelay))
      (pins
        (pin (num 1) (name ~) (type input))
        (pin (num 2) (name ~) (type input))
        (pin (num 3) (name ~) (type input))
        (pin (num 4) (name ~) (type input))
        (pin (num 5) (name ~) (type input)))))
  (libraries
    (library (logical device)
      (uri "C:\\Program Files\\KiCad\\share\\kicad\\library\\device.lib"))
    (library (logical conn)
      (uri "C:\\Program Files\\KiCad\\share\\kicad\\library\\conn.lib"))
    (library (logical ARCSS_Electromechanical)
      (uri C:\Users\dcellucc\git\ames-spaceshop-kicad\ARCSS_Electromechanical.lib))
    (library (logical ARCSS_Fab)
      (uri C:\Users\dcellucc\git\ames-spaceshop-kicad\ARCSS_Fab.lib)))
  (nets
    (net (code 1) (name "Net-(J1-Pad2)")
      (node (ref R2) (pin 1))
      (node (ref J1) (pin 2)))
    (net (code 2) (name "Net-(D1-Pad2)")
      (node (ref D1) (pin 2))
      (node (ref R1) (pin 2)))
    (net (code 3) (name GND)
      (node (ref R5) (pin 2))
      (node (ref R5) (pin 1))
      (node (ref J1) (pin 3))
      (node (ref N1) (pin 2))
      (node (ref D1) (pin 1))
      (node (ref R4) (pin 2)))
    (net (code 4) (name "Net-(D2-Pad1)")
      (node (ref D3) (pin 2))
      (node (ref D2) (pin 1))
      (node (ref N1) (pin 3))
      (node (ref S1) (pin 2)))
    (net (code 5) (name "Net-(N1-Pad1)")
      (node (ref N1) (pin 1))
      (node (ref R2) (pin 2))
      (node (ref R4) (pin 1)))
    (net (code 6) (name "Net-(J2-Pad3)")
      (node (ref S1) (pin 4))
      (node (ref J2) (pin 3)))
    (net (code 7) (name "Net-(J2-Pad1)")
      (node (ref J2) (pin 1))
      (node (ref S1) (pin 3)))
    (net (code 8) (name "Net-(J2-Pad2)")
      (node (ref S1) (pin 1))
      (node (ref J2) (pin 2)))
    (net (code 9) (name +5V)
      (node (ref D3) (pin 1))
      (node (ref S1) (pin 5))
      (node (ref J1) (pin 1))
      (node (ref R1) (pin 1))
      (node (ref R3) (pin 1)))
    (net (code 10) (name "Net-(D2-Pad2)")
      (node (ref R3) (pin 2))
      (node (ref D2) (pin 2)))))